1.4_ligadesliga/simulation/qsim/divfreq.msim.vcd
$comment
	File created using the following command:
		vcd file divfreq.msim.vcd -direction
$end
$date
	Sat Apr 21 17:13:14 2018
$end
$version
	ModelSim Version 10.1d
$end
$timescale
	1ps
$end
$scope module divfreq_vlg_vec_tst $end
$var reg 1 ! cin $end
$var reg 1 " clk_fpga $end
$var wire 1 # cout $end
$var wire 1 $ q1hz [8] $end
$var wire 1 % q1hz [7] $end
$var wire 1 & q1hz [6] $end
$var wire 1 ' q1hz [5] $end
$var wire 1 ( q1hz [4] $end
$var wire 1 ) q1hz [3] $end
$var wire 1 * q1hz [2] $end
$var wire 1 + q1hz [1] $end
$var wire 1 , q1hz [0] $end
$var wire 1 - q1khz [7] $end
$var wire 1 . q1khz [6] $end
$var wire 1 / q1khz [5] $end
$var wire 1 0 q1khz [4] $end
$var wire 1 1 q1khz [3] $end
$var wire 1 2 q1khz [2] $end
$var wire 1 3 q1khz [1] $end
$var wire 1 4 q1khz [0] $end
$var wire 1 5 q153khz [8] $end
$var wire 1 6 q153khz [7] $end
$var wire 1 7 q153khz [6] $end
$var wire 1 8 q153khz [5] $end
$var wire 1 9 q153khz [4] $end
$var wire 1 : q153khz [3] $end
$var wire 1 ; q153khz [2] $end
$var wire 1 < q153khz [1] $end
$var wire 1 = q153khz [0] $end
$var wire 1 > q500hz [1] $end
$var wire 1 ? q500hz [0] $end
$var wire 1 @ sampler $end
$scope module i1 $end
$var wire 1 A gnd $end
$var wire 1 B vcc $end
$var wire 1 C unknown $end
$var tri1 1 D devclrn $end
$var tri1 1 E devpor $end
$var tri1 1 F devoe $end
$var wire 1 G cout~output_o $end
$var wire 1 H q153khz[8]~output_o $end
$var wire 1 I q153khz[7]~output_o $end
$var wire 1 J q153khz[6]~output_o $end
$var wire 1 K q153khz[5]~output_o $end
$var wire 1 L q153khz[4]~output_o $end
$var wire 1 M q153khz[3]~output_o $end
$var wire 1 N q153khz[2]~output_o $end
$var wire 1 O q153khz[1]~output_o $end
$var wire 1 P q153khz[0]~output_o $end
$var wire 1 Q q1hz[8]~output_o $end
$var wire 1 R q1hz[7]~output_o $end
$var wire 1 S q1hz[6]~output_o $end
$var wire 1 T q1hz[5]~output_o $end
$var wire 1 U q1hz[4]~output_o $end
$var wire 1 V q1hz[3]~output_o $end
$var wire 1 W q1hz[2]~output_o $end
$var wire 1 X q1hz[1]~output_o $end
$var wire 1 Y q1hz[0]~output_o $end
$var wire 1 Z q1khz[7]~output_o $end
$var wire 1 [ q1khz[6]~output_o $end
$var wire 1 \ q1khz[5]~output_o $end
$var wire 1 ] q1khz[4]~output_o $end
$var wire 1 ^ q1khz[3]~output_o $end
$var wire 1 _ q1khz[2]~output_o $end
$var wire 1 ` q1khz[1]~output_o $end
$var wire 1 a q1khz[0]~output_o $end
$var wire 1 b q500hz[1]~output_o $end
$var wire 1 c q500hz[0]~output_o $end
$var wire 1 d clk_fpga~input_o $end
$var wire 1 e clk_fpga~inputclkctrl_outclk $end
$var wire 1 f cin~input_o $end
$var wire 1 g inst|LPM_COUNTER_component|auto_generated|counter_comb_bita0~1_cout $end
$var wire 1 h inst|LPM_COUNTER_component|auto_generated|counter_comb_bita0~combout $end
$var wire 1 i ~GND~combout $end
$var wire 1 j inst|LPM_COUNTER_component|auto_generated|counter_comb_bita0~COUT $end
$var wire 1 k inst|LPM_COUNTER_component|auto_generated|counter_comb_bita1~combout $end
$var wire 1 l inst|LPM_COUNTER_component|auto_generated|counter_comb_bita1~COUT $end
$var wire 1 m inst|LPM_COUNTER_component|auto_generated|counter_comb_bita2~combout $end
$var wire 1 n inst|LPM_COUNTER_component|auto_generated|counter_comb_bita2~COUT $end
$var wire 1 o inst|LPM_COUNTER_component|auto_generated|counter_comb_bita3~combout $end
$var wire 1 p inst|LPM_COUNTER_component|auto_generated|counter_comb_bita3~COUT $end
$var wire 1 q inst|LPM_COUNTER_component|auto_generated|counter_comb_bita4~combout $end
$var wire 1 r inst|LPM_COUNTER_component|auto_generated|counter_comb_bita4~COUT $end
$var wire 1 s inst|LPM_COUNTER_component|auto_generated|counter_comb_bita5~combout $end
$var wire 1 t inst|LPM_COUNTER_component|auto_generated|time_to_clear~1_combout $end
$var wire 1 u inst|LPM_COUNTER_component|auto_generated|time_to_clear~2_combout $end
$var wire 1 v inst|LPM_COUNTER_component|auto_generated|counter_comb_bita5~COUT $end
$var wire 1 w inst|LPM_COUNTER_component|auto_generated|counter_comb_bita6~combout $end
$var wire 1 x inst|LPM_COUNTER_component|auto_generated|counter_comb_bita6~COUT $end
$var wire 1 y inst|LPM_COUNTER_component|auto_generated|counter_comb_bita7~combout $end
$var wire 1 z inst|LPM_COUNTER_component|auto_generated|counter_comb_bita7~COUT $end
$var wire 1 { inst|LPM_COUNTER_component|auto_generated|counter_comb_bita8~combout $end
$var wire 1 | inst|LPM_COUNTER_component|auto_generated|counter_comb_bita8~COUT $end
$var wire 1 } inst|LPM_COUNTER_component|auto_generated|counter_comb_bita8~0_combout $end
$var wire 1 ~ inst|LPM_COUNTER_component|auto_generated|time_to_clear~0_combout $end
$var wire 1 !! inst|LPM_COUNTER_component|auto_generated|cout_actual~combout $end
$var wire 1 "! inst1|LPM_COUNTER_component|auto_generated|counter_comb_bita0~1_cout $end
$var wire 1 #! inst1|LPM_COUNTER_component|auto_generated|counter_comb_bita0~combout $end
$var wire 1 $! inst1|LPM_COUNTER_component|auto_generated|time_to_clear~1_combout $end
$var wire 1 %! inst1|LPM_COUNTER_component|auto_generated|counter_comb_bita4~COUT $end
$var wire 1 &! inst1|LPM_COUNTER_component|auto_generated|counter_comb_bita5~combout $end
$var wire 1 '! inst1|LPM_COUNTER_component|auto_generated|counter_comb_bita5~COUT $end
$var wire 1 (! inst1|LPM_COUNTER_component|auto_generated|counter_comb_bita6~combout $end
$var wire 1 )! inst1|LPM_COUNTER_component|auto_generated|counter_comb_bita6~COUT $end
$var wire 1 *! inst1|LPM_COUNTER_component|auto_generated|counter_comb_bita7~combout $end
$var wire 1 +! inst1|LPM_COUNTER_component|auto_generated|counter_comb_bita7~COUT $end
$var wire 1 ,! inst1|LPM_COUNTER_component|auto_generated|counter_comb_bita7~0_combout $end
$var wire 1 -! inst2|LPM_COUNTER_component|auto_generated|cout_actual~3_combout $end
$var wire 1 .! inst1|LPM_COUNTER_component|auto_generated|counter_comb_bita0~COUT $end
$var wire 1 /! inst1|LPM_COUNTER_component|auto_generated|counter_comb_bita1~combout $end
$var wire 1 0! inst1|LPM_COUNTER_component|auto_generated|counter_comb_bita1~COUT $end
$var wire 1 1! inst1|LPM_COUNTER_component|auto_generated|counter_comb_bita2~combout $end
$var wire 1 2! inst1|LPM_COUNTER_component|auto_generated|counter_comb_bita2~COUT $end
$var wire 1 3! inst1|LPM_COUNTER_component|auto_generated|counter_comb_bita3~combout $end
$var wire 1 4! inst1|LPM_COUNTER_component|auto_generated|counter_comb_bita3~COUT $end
$var wire 1 5! inst1|LPM_COUNTER_component|auto_generated|counter_comb_bita4~combout $end
$var wire 1 6! inst1|LPM_COUNTER_component|auto_generated|time_to_clear~0_combout $end
$var wire 1 7! inst1|LPM_COUNTER_component|auto_generated|time_to_clear~combout $end
$var wire 1 8! inst2|LPM_COUNTER_component|auto_generated|trigger_mux_w[0]~0_combout $end
$var wire 1 9! inst2|LPM_COUNTER_component|auto_generated|cout_actual~2_combout $end
$var wire 1 :! inst3|LPM_COUNTER_component|auto_generated|counter_comb_bita0~1_cout $end
$var wire 1 ;! inst3|LPM_COUNTER_component|auto_generated|counter_comb_bita0~combout $end
$var wire 1 <! inst3|LPM_COUNTER_component|auto_generated|counter_comb_bita0~COUT $end
$var wire 1 =! inst3|LPM_COUNTER_component|auto_generated|counter_comb_bita1~combout $end
$var wire 1 >! inst3|LPM_COUNTER_component|auto_generated|counter_comb_bita1~COUT $end
$var wire 1 ?! inst3|LPM_COUNTER_component|auto_generated|counter_comb_bita2~combout $end
$var wire 1 @! inst3|LPM_COUNTER_component|auto_generated|counter_comb_bita2~COUT $end
$var wire 1 A! inst3|LPM_COUNTER_component|auto_generated|counter_comb_bita3~combout $end
$var wire 1 B! inst3|LPM_COUNTER_component|auto_generated|counter_comb_bita3~COUT $end
$var wire 1 C! inst3|LPM_COUNTER_component|auto_generated|counter_comb_bita4~combout $end
$var wire 1 D! inst3|LPM_COUNTER_component|auto_generated|counter_comb_bita4~COUT $end
$var wire 1 E! inst3|LPM_COUNTER_component|auto_generated|counter_comb_bita5~combout $end
$var wire 1 F! inst3|LPM_COUNTER_component|auto_generated|counter_comb_bita5~COUT $end
$var wire 1 G! inst3|LPM_COUNTER_component|auto_generated|counter_comb_bita6~combout $end
$var wire 1 H! inst3|LPM_COUNTER_component|auto_generated|counter_comb_bita6~COUT $end
$var wire 1 I! inst3|LPM_COUNTER_component|auto_generated|counter_comb_bita7~combout $end
$var wire 1 J! inst3|LPM_COUNTER_component|auto_generated|counter_comb_bita7~COUT $end
$var wire 1 K! inst3|LPM_COUNTER_component|auto_generated|counter_comb_bita8~combout $end
$var wire 1 L! inst3|LPM_COUNTER_component|auto_generated|time_to_clear~0_combout $end
$var wire 1 M! inst3|LPM_COUNTER_component|auto_generated|time_to_clear~1_combout $end
$var wire 1 N! inst3|LPM_COUNTER_component|auto_generated|time_to_clear~2_combout $end
$var wire 1 O! inst3|LPM_COUNTER_component|auto_generated|counter_comb_bita8~COUT $end
$var wire 1 P! inst3|LPM_COUNTER_component|auto_generated|counter_comb_bita8~0_combout $end
$var wire 1 Q! inst3|LPM_COUNTER_component|auto_generated|cout_actual~combout $end
$var wire 1 R! inst|LPM_COUNTER_component|auto_generated|counter_reg_bit [8] $end
$var wire 1 S! inst|LPM_COUNTER_component|auto_generated|counter_reg_bit [7] $end
$var wire 1 T! inst|LPM_COUNTER_component|auto_generated|counter_reg_bit [6] $end
$var wire 1 U! inst|LPM_COUNTER_component|auto_generated|counter_reg_bit [5] $end
$var wire 1 V! inst|LPM_COUNTER_component|auto_generated|counter_reg_bit [4] $end
$var wire 1 W! inst|LPM_COUNTER_component|auto_generated|counter_reg_bit [3] $end
$var wire 1 X! inst|LPM_COUNTER_component|auto_generated|counter_reg_bit [2] $end
$var wire 1 Y! inst|LPM_COUNTER_component|auto_generated|counter_reg_bit [1] $end
$var wire 1 Z! inst|LPM_COUNTER_component|auto_generated|counter_reg_bit [0] $end
$var wire 1 [! inst2|LPM_COUNTER_component|auto_generated|counter_reg_bit [1] $end
$var wire 1 \! inst2|LPM_COUNTER_component|auto_generated|counter_reg_bit [0] $end
$var wire 1 ]! inst1|LPM_COUNTER_component|auto_generated|counter_reg_bit [7] $end
$var wire 1 ^! inst1|LPM_COUNTER_component|auto_generated|counter_reg_bit [6] $end
$var wire 1 _! inst1|LPM_COUNTER_component|auto_generated|counter_reg_bit [5] $end
$var wire 1 `! inst1|LPM_COUNTER_component|auto_generated|counter_reg_bit [4] $end
$var wire 1 a! inst1|LPM_COUNTER_component|auto_generated|counter_reg_bit [3] $end
$var wire 1 b! inst1|LPM_COUNTER_component|auto_generated|counter_reg_bit [2] $end
$var wire 1 c! inst1|LPM_COUNTER_component|auto_generated|counter_reg_bit [1] $end
$var wire 1 d! inst1|LPM_COUNTER_component|auto_generated|counter_reg_bit [0] $end
$var wire 1 e! inst3|LPM_COUNTER_component|auto_generated|counter_reg_bit [8] $end
$var wire 1 f! inst3|LPM_COUNTER_component|auto_generated|counter_reg_bit [7] $end
$var wire 1 g! inst3|LPM_COUNTER_component|auto_generated|counter_reg_bit [6] $end
$var wire 1 h! inst3|LPM_COUNTER_component|auto_generated|counter_reg_bit [5] $end
$var wire 1 i! inst3|LPM_COUNTER_component|auto_generated|counter_reg_bit [4] $end
$var wire 1 j! inst3|LPM_COUNTER_component|auto_generated|counter_reg_bit [3] $end
$var wire 1 k! inst3|LPM_COUNTER_component|auto_generated|counter_reg_bit [2] $end
$var wire 1 l! inst3|LPM_COUNTER_component|auto_generated|counter_reg_bit [1] $end
$var wire 1 m! inst3|LPM_COUNTER_component|auto_generated|counter_reg_bit [0] $end
$upscope $end
$upscope $end
$enddefinitions $end
#0
$dumpvars
0!
0"
0#
0,
0+
0*
0)
0(
0'
0&
0%
0$
04
03
02
01
00
0/
0.
0-
0=
0<
0;
0:
09
08
07
06
05
0?
0>
x@
0A
1B
xC
1D
1E
1F
0G
0H
0I
0J
0K
0L
0M
0N
0O
0P
0Q
0R
0S
0T
0U
0V
0W
0X
0Y
0Z
0[
0\
0]
0^
0_
0`
0a
0b
0c
0d
0e
0f
0g
0h
0i
1j
0k
0l
0m
1n
0o
0p
0q
1r
0s
1t
0u
0v
0w
1x
0y
0z
0{
1|
0}
0~
0!!
0"!
0#!
0$!
1%!
0&!
0'!
0(!
1)!
0*!
0+!
0,!
0-!
1.!
0/!
00!
01!
12!
03!
04!
05!
16!
07!
08!
09!
0:!
0;!
1<!
0=!
0>!
0?!
1@!
0A!
0B!
0C!
1D!
0E!
0F!
0G!
1H!
0I!
0J!
0K!
1L!
1M!
0N!
1O!
0P!
0Q!
0Z!
0Y!
0X!
0W!
0V!
0U!
0T!
0S!
0R!
0\!
z[!
0d!
0c!
0b!
0a!
0`!
0_!
0^!
0]!
0m!
0l!
0k!
0j!
0i!
0h!
0g!
0f!
0e!
$end
#1000
1"
1d
1e
0@
#2000
0"
0d
0e
1@
#3000
1"
1d
1e
0@
#4000
0"
0d
0e
1@
#5000
1"
1d
1e
0@
#6000
0"
0d
0e
1@
#7000
1"
1d
1e
0@
#8000
0"
0d
0e
1@
#9000
1"
1d
1e
0@
#10000
1!
0"
1f
0d
0e
1@
1~
1g
1h
#11000
1"
1d
1e
0@
1Z!
1u
0j
0h
1P
1=
1!!
1k
1"!
1#!
#12000
0"
0d
0e
1@
#13000
1"
1d
1e
0@
1d!
0Z!
1$!
0.!
0#!
0u
1j
1h
1a
0P
14
0=
17!
1-!
1/!
0!!
0k
18!
07!
0-!
0"!
08!
1.!
1#!
0/!
#14000
0"
0d
0e
1@
#15000
1"
1d
1e
0@
1Z!
1u
0j
0h
1P
1=
1!!
1k
17!
1-!
1"!
18!
0.!
0#!
1/!
#16000
0"
0d
0e
1@
#17000
1"
1d
1e
0@
1\!
0d!
0Z!
19!
08!
0$!
1.!
1#!
0u
1j
1h
1c
0a
0P
1?
04
0=
1:!
07!
0-!
0/!
0!!
0k
1;!
09!
18!
0"!
0:!
0#!
0;!
#18000
0"
0d
0e
1@
#19000
1"
1d
1e
0@
1Z!
1u
0j
0h
1P
1=
1!!
1k
1"!
1#!
#20000
0"
0d
0e
1@
#21000
1"
1d
1e
0@
1d!
0Z!
1$!
0.!
0#!
0u
1j
1h
1a
0P
14
0=
17!
1-!
1/!
0!!
0k
19!
08!
07!
0-!
0"!
1:!
09!
18!
1.!
1#!
1;!
0:!
0/!
0;!
#22000
0"
0d
0e
1@
#23000
1"
1d
1e
0@
1Z!
1u
0j
0h
1P
1=
1!!
1k
17!
1-!
1"!
19!
08!
0.!
0#!
1:!
1/!
1;!
#24000
0"
0d
0e
1@
#25000
1"
1d
1e
0@
1m!
0\!
0d!
0Z!
1N!
0<!
0;!
09!
18!
0$!
1.!
1#!
0u
1j
1h
1Y
0c
0a
0P
1,
0?
04
0=
1=!
0:!
07!
0-!
0/!
0!!
0k
1<!
1;!
08!
0"!
0=!
0#!
#26000
0"
0d
0e
1@
#27000
1"
1d
1e
0@
1Z!
1u
0j
0h
1P
1=
1!!
1k
1"!
1#!
#28000
0"
0d
0e
1@
#29000
1"
1d
1e
0@
1d!
0Z!
1$!
0.!
0#!
0u
1j
1h
1a
0P
14
0=
17!
1-!
1/!
0!!
0k
18!
07!
0-!
0"!
08!
1.!
1#!
0/!
#30000
0"
0d
0e
1@
#31000
1"
1d
1e
0@
1Z!
1u
0j
0h
1P
1=
1!!
1k
17!
1-!
1"!
18!
0.!
0#!
1/!
#32000
0"
0d
0e
1@
#33000
1"
1d
1e
0@
1\!
0d!
0Z!
19!
08!
0$!
1.!
1#!
0u
1j
1h
1c
0a
0P
1?
04
0=
1:!
07!
0-!
0/!
0!!
0k
1Q!
0<!
0;!
09!
18!
0"!
1G
1#
1=!
0:!
0#!
0Q!
1<!
1;!
0G
0#
0=!
#34000
0"
0d
0e
1@
#35000
1"
1d
1e
0@
1Z!
1u
0j
0h
1P
1=
1!!
1k
1"!
1#!
#36000
0"
0d
0e
1@
#37000
1"
1d
1e
0@
1d!
0Z!
1$!
0.!
0#!
0u
1j
1h
1a
0P
14
0=
17!
1-!
1/!
0!!
0k
19!
08!
07!
0-!
0"!
1:!
09!
18!
1.!
1#!
1Q!
0<!
0;!
0:!
0/!
1G
1#
0Q!
1=!
1<!
1;!
0G
0#
0=!
#38000
0"
0d
0e
1@
#39000
1"
1d
1e
0@
1Z!
1u
0j
0h
1P
1=
1!!
1k
17!
1-!
1"!
19!
08!
0.!
0#!
1:!
1/!
1Q!
0<!
0;!
1G
1#
1=!
#40000
0"
0d
0e
1@
#41000
1"
1d
1e
0@
0m!
0\!
0d!
0Z!
0N!
1<!
1;!
09!
18!
0$!
1.!
1#!
0u
1j
1h
0Y
0c
0a
0P
0,
0?
04
0=
0=!
0:!
07!
0-!
0/!
0!!
0k
0Q!
0;!
08!
0"!
0G
0#
0#!
#42000
0"
0d
0e
1@
#43000
1"
1d
1e
0@
1Z!
1u
0j
0h
1P
1=
1!!
1k
1"!
1#!
#44000
0"
0d
0e
1@
#45000
1"
1d
1e
0@
1d!
0Z!
1$!
0.!
0#!
0u
1j
1h
1a
0P
14
0=
17!
1-!
1/!
0!!
0k
18!
07!
0-!
0"!
08!
1.!
1#!
0/!
#46000
0"
0d
0e
1@
#47000
1"
1d
1e
0@
1Z!
1u
0j
0h
1P
1=
1!!
1k
17!
1-!
1"!
18!
0.!
0#!
1/!
#48000
0"
0d
0e
1@
#49000
1"
1d
1e
0@
1\!
0d!
0Z!
19!
08!
0$!
1.!
1#!
0u
1j
1h
1c
0a
0P
1?
04
0=
1:!
07!
0-!
0/!
0!!
0k
1;!
09!
18!
0"!
0:!
0#!
0;!
#50000
0"
0d
0e
1@
#51000
1"
1d
1e
0@
1Z!
1u
0j
0h
1P
1=
1!!
1k
1"!
1#!
#52000
0"
0d
0e
1@
#53000
1"
1d
1e
0@
1d!
0Z!
1$!
0.!
0#!
0u
1j
1h
1a
0P
14
0=
17!
1-!
1/!
0!!
0k
19!
08!
07!
0-!
0"!
1:!
09!
18!
1.!
1#!
1;!
0:!
0/!
0;!
#54000
0"
0d
0e
1@
#55000
1"
1d
1e
0@
1Z!
1u
0j
0h
1P
1=
1!!
1k
17!
1-!
1"!
19!
08!
0.!
0#!
1:!
1/!
1;!
#56000
0"
0d
0e
1@
#57000
1"
1d
1e
0@
1m!
0\!
0d!
0Z!
1N!
0<!
0;!
09!
18!
0$!
1.!
1#!
0u
1j
1h
1Y
0c
0a
0P
1,
0?
04
0=
1=!
0:!
07!
0-!
0/!
0!!
0k
1<!
1;!
08!
0"!
0=!
0#!
#58000
0"
0d
0e
1@
#59000
1"
1d
1e
0@
1Z!
1u
0j
0h
1P
1=
1!!
1k
1"!
1#!
#60000
0"
0d
0e
1@
#61000
1"
1d
1e
0@
1d!
0Z!
1$!
0.!
0#!
0u
1j
1h
1a
0P
14
0=
17!
1-!
1/!
0!!
0k
18!
07!
0-!
0"!
08!
1.!
1#!
0/!
#62000
0"
0d
0e
1@
#63000
1"
1d
1e
0@
1Z!
1u
0j
0h
1P
1=
1!!
1k
17!
1-!
1"!
18!
0.!
0#!
1/!
#64000
0"
0d
0e
1@
#65000
1"
1d
1e
0@
1\!
0d!
0Z!
19!
08!
0$!
1.!
1#!
0u
1j
1h
1c
0a
0P
1?
04
0=
1:!
07!
0-!
0/!
0!!
0k
1Q!
0<!
0;!
09!
18!
0"!
1G
1#
1=!
0:!
0#!
0Q!
1<!
1;!
0G
0#
0=!
#66000
0"
0d
0e
1@
#67000
1"
1d
1e
0@
1Z!
1u
0j
0h
1P
1=
1!!
1k
1"!
1#!
#68000
0"
0d
0e
1@
#69000
1"
1d
1e
0@
1d!
0Z!
1$!
0.!
0#!
0u
1j
1h
1a
0P
14
0=
17!
1-!
1/!
0!!
0k
19!
08!
07!
0-!
0"!
1:!
09!
18!
1.!
1#!
1Q!
0<!
0;!
0:!
0/!
1G
1#
0Q!
1=!
1<!
1;!
0G
0#
0=!
#70000
0"
0d
0e
1@
#71000
1"
1d
1e
0@
1Z!
1u
0j
0h
1P
1=
1!!
1k
17!
1-!
1"!
19!
08!
0.!
0#!
1:!
1/!
1Q!
0<!
0;!
1G
1#
1=!
#72000
0"
0d
0e
1@
#73000
1"
1d
1e
0@
0m!
0\!
0d!
0Z!
0N!
1<!
1;!
09!
18!
0$!
1.!
1#!
0u
1j
1h
0Y
0c
0a
0P
0,
0?
04
0=
0=!
0:!
07!
0-!
0/!
0!!
0k
0Q!
0;!
08!
0"!
0G
0#
0#!
#74000
0"
0d
0e
1@
#75000
1"
1d
1e
0@
1Z!
1u
0j
0h
1P
1=
1!!
1k
1"!
1#!
#76000
0"
0d
0e
1@
#77000
1"
1d
1e
0@
1d!
0Z!
1$!
0.!
0#!
0u
1j
1h
1a
0P
14
0=
17!
1-!
1/!
0!!
0k
18!
07!
0-!
0"!
08!
1.!
1#!
0/!
#78000
0"
0d
0e
1@
#79000
1"
1d
1e
0@
1Z!
1u
0j
0h
1P
1=
1!!
1k
17!
1-!
1"!
18!
0.!
0#!
1/!
#80000
0"
0d
0e
1@
#81000
1"
1d
1e
0@
1\!
0d!
0Z!
19!
08!
0$!
1.!
1#!
0u
1j
1h
1c
0a
0P
1?
04
0=
1:!
07!
0-!
0/!
0!!
0k
1;!
09!
18!
0"!
0:!
0#!
0;!
#82000
0"
0d
0e
1@
#83000
1"
1d
1e
0@
1Z!
1u
0j
0h
1P
1=
1!!
1k
1"!
1#!
#84000
0"
0d
0e
1@
#85000
1"
1d
1e
0@
1d!
0Z!
1$!
0.!
0#!
0u
1j
1h
1a
0P
14
0=
17!
1-!
1/!
0!!
0k
19!
08!
07!
0-!
0"!
1:!
09!
18!
1.!
1#!
1;!
0:!
0/!
0;!
#86000
0"
0d
0e
1@
#87000
1"
1d
1e
0@
1Z!
1u
0j
0h
1P
1=
1!!
1k
17!
1-!
1"!
19!
08!
0.!
0#!
1:!
1/!
1;!
#88000
0"
0d
0e
1@
#89000
1"
1d
1e
0@
1m!
0\!
0d!
0Z!
1N!
0<!
0;!
09!
18!
0$!
1.!
1#!
0u
1j
1h
1Y
0c
0a
0P
1,
0?
04
0=
1=!
0:!
07!
0-!
0/!
0!!
0k
1<!
1;!
08!
0"!
0=!
0#!
#90000
0"
0d
0e
1@
#91000
1"
1d
1e
0@
1Z!
1u
0j
0h
1P
1=
1!!
1k
1"!
1#!
#92000
0"
0d
0e
1@
#93000
1"
1d
1e
0@
1d!
0Z!
1$!
0.!
0#!
0u
1j
1h
1a
0P
14
0=
17!
1-!
1/!
0!!
0k
18!
07!
0-!
0"!
08!
1.!
1#!
0/!
#94000
0"
0d
0e
1@
#95000
1"
1d
1e
0@
1Z!
1u
0j
0h
1P
1=
1!!
1k
17!
1-!
1"!
18!
0.!
0#!
1/!
#96000
0"
0d
0e
1@
#97000
1"
1d
1e
0@
1\!
0d!
0Z!
19!
08!
0$!
1.!
1#!
0u
1j
1h
1c
0a
0P
1?
04
0=
1:!
07!
0-!
0/!
0!!
0k
1Q!
0<!
0;!
09!
18!
0"!
1G
1#
1=!
0:!
0#!
0Q!
1<!
1;!
0G
0#
0=!
#98000
0"
0d
0e
1@
#99000
1"
1d
1e
0@
1Z!
1u
0j
0h
1P
1=
1!!
1k
1"!
1#!
#100000
0"
0d
0e
1@
#101000
1"
1d
1e
0@
1d!
0Z!
1$!
0.!
0#!
0u
1j
1h
1a
0P
14
0=
17!
1-!
1/!
0!!
0k
19!
08!
07!
0-!
0"!
1:!
09!
18!
1.!
1#!
1Q!
0<!
0;!
0:!
0/!
1G
1#
0Q!
1=!
1<!
1;!
0G
0#
0=!
#102000
0"
0d
0e
1@
#103000
1"
1d
1e
0@
1Z!
1u
0j
0h
1P
1=
1!!
1k
17!
1-!
1"!
19!
08!
0.!
0#!
1:!
1/!
1Q!
0<!
0;!
1G
1#
1=!
#104000
0"
0d
0e
1@
#105000
1"
1d
1e
0@
0m!
0\!
0d!
0Z!
0N!
1<!
1;!
09!
18!
0$!
1.!
1#!
0u
1j
1h
0Y
0c
0a
0P
0,
0?
04
0=
0=!
0:!
07!
0-!
0/!
0!!
0k
0Q!
0;!
08!
0"!
0G
0#
0#!
#106000
0"
0d
0e
1@
#107000
1"
1d
1e
0@
1Z!
1u
0j
0h
1P
1=
1!!
1k
1"!
1#!
#108000
0"
0d
0e
1@
#109000
1"
1d
1e
0@
1d!
0Z!
1$!
0.!
0#!
0u
1j
1h
1a
0P
14
0=
17!
1-!
1/!
0!!
0k
18!
07!
0-!
0"!
08!
1.!
1#!
0/!
#110000
0"
0d
0e
1@
#111000
1"
1d
1e
0@
1Z!
1u
0j
0h
1P
1=
1!!
1k
17!
1-!
1"!
18!
0.!
0#!
1/!
#112000
0"
0d
0e
1@
#113000
1"
1d
1e
0@
1\!
0d!
0Z!
19!
08!
0$!
1.!
1#!
0u
1j
1h
1c
0a
0P
1?
04
0=
1:!
07!
0-!
0/!
0!!
0k
1;!
09!
18!
0"!
0:!
0#!
0;!
#114000
0"
0d
0e
1@
#115000
1"
1d
1e
0@
1Z!
1u
0j
0h
1P
1=
1!!
1k
1"!
1#!
#116000
0"
0d
0e
1@
#117000
1"
1d
1e
0@
1d!
0Z!
1$!
0.!
0#!
0u
1j
1h
1a
0P
14
0=
17!
1-!
1/!
0!!
0k
19!
08!
07!
0-!
0"!
1:!
09!
18!
1.!
1#!
1;!
0:!
0/!
0;!
#118000
0"
0d
0e
1@
#119000
1"
1d
1e
0@
1Z!
1u
0j
0h
1P
1=
1!!
1k
17!
1-!
1"!
19!
08!
0.!
0#!
1:!
1/!
1;!
#120000
0"
0d
0e
1@
#121000
1"
1d
1e
0@
1m!
0\!
0d!
0Z!
1N!
0<!
0;!
09!
18!
0$!
1.!
1#!
0u
1j
1h
1Y
0c
0a
0P
1,
0?
04
0=
1=!
0:!
07!
0-!
0/!
0!!
0k
1<!
1;!
08!
0"!
0=!
0#!
#122000
0"
0d
0e
1@
#123000
1"
1d
1e
0@
1Z!
1u
0j
0h
1P
1=
1!!
1k
1"!
1#!
#124000
0"
0d
0e
1@
#125000
1"
1d
1e
0@
1d!
0Z!
1$!
0.!
0#!
0u
1j
1h
1a
0P
14
0=
17!
1-!
1/!
0!!
0k
18!
07!
0-!
0"!
08!
1.!
1#!
0/!
#126000
0"
0d
0e
1@
#127000
1"
1d
1e
0@
1Z!
1u
0j
0h
1P
1=
1!!
1k
17!
1-!
1"!
18!
0.!
0#!
1/!
#128000
0"
0d
0e
1@
#129000
1"
1d
1e
0@
1\!
0d!
0Z!
19!
08!
0$!
1.!
1#!
0u
1j
1h
1c
0a
0P
1?
04
0=
1:!
07!
0-!
0/!
0!!
0k
1Q!
0<!
0;!
09!
18!
0"!
1G
1#
1=!
0:!
0#!
0Q!
1<!
1;!
0G
0#
0=!
#130000
0"
0d
0e
1@
#131000
1"
1d
1e
0@
1Z!
1u
0j
0h
1P
1=
1!!
1k
1"!
1#!
#132000
0"
0d
0e
1@
#133000
1"
1d
1e
0@
1d!
0Z!
1$!
0.!
0#!
0u
1j
1h
1a
0P
14
0=
17!
1-!
1/!
0!!
0k
19!
08!
07!
0-!
0"!
1:!
09!
18!
1.!
1#!
1Q!
0<!
0;!
0:!
0/!
1G
1#
0Q!
1=!
1<!
1;!
0G
0#
0=!
#134000
0"
0d
0e
1@
#135000
1"
1d
1e
0@
1Z!
1u
0j
0h
1P
1=
1!!
1k
17!
1-!
1"!
19!
08!
0.!
0#!
1:!
1/!
1Q!
0<!
0;!
1G
1#
1=!
#136000
0"
0d
0e
1@
#137000
1"
1d
1e
0@
0m!
0\!
0d!
0Z!
0N!
1<!
1;!
09!
18!
0$!
1.!
1#!
0u
1j
1h
0Y
0c
0a
0P
0,
0?
04
0=
0=!
0:!
07!
0-!
0/!
0!!
0k
0Q!
0;!
08!
0"!
0G
0#
0#!
#138000
0"
0d
0e
1@
#139000
1"
1d
1e
0@
1Z!
1u
0j
0h
1P
1=
1!!
1k
1"!
1#!
#140000
0"
0d
0e
1@
#141000
1"
1d
1e
0@
1d!
0Z!
1$!
0.!
0#!
0u
1j
1h
1a
0P
14
0=
17!
1-!
1/!
0!!
0k
18!
07!
0-!
0"!
08!
1.!
1#!
0/!
#142000
0"
0d
0e
1@
#143000
1"
1d
1e
0@
1Z!
1u
0j
0h
1P
1=
1!!
1k
17!
1-!
1"!
18!
0.!
0#!
1/!
#144000
0"
0d
0e
1@
#145000
1"
1d
1e
0@
1\!
0d!
0Z!
19!
08!
0$!
1.!
1#!
0u
1j
1h
1c
0a
0P
1?
04
0=
1:!
07!
0-!
0/!
0!!
0k
1;!
09!
18!
0"!
0:!
0#!
0;!
#146000
0"
0d
0e
1@
#147000
1"
1d
1e
0@
1Z!
1u
0j
0h
1P
1=
1!!
1k
1"!
1#!
#148000
0"
0d
0e
1@
#149000
1"
1d
1e
0@
1d!
0Z!
1$!
0.!
0#!
0u
1j
1h
1a
0P
14
0=
17!
1-!
1/!
0!!
0k
19!
08!
07!
0-!
0"!
1:!
09!
18!
1.!
1#!
1;!
0:!
0/!
0;!
#150000
0"
0d
0e
1@
#151000
1"
1d
1e
0@
1Z!
1u
0j
0h
1P
1=
1!!
1k
17!
1-!
1"!
19!
08!
0.!
0#!
1:!
1/!
1;!
#152000
0"
0d
0e
1@
