1.4_ligadesliga/simulation/qsim/divfreq.msim.vcd
$comment
	File created using the following command:
		vcd file divfreq.msim.vcd -direction
$end
$date
	Tue Apr 10 21:27:43 2018
$end
$version
	ModelSim Version 10.1d
$end
$timescale
	1ps
$end
$scope module divfreq_vlg_vec_tst $end
$var reg 1 ! cin $end
$var reg 1 " clk_fpga $end
$var wire 1 # cout $end
$var wire 1 $ q1hz [8] $end
$var wire 1 % q1hz [7] $end
$var wire 1 & q1hz [6] $end
$var wire 1 ' q1hz [5] $end
$var wire 1 ( q1hz [4] $end
$var wire 1 ) q1hz [3] $end
$var wire 1 * q1hz [2] $end
$var wire 1 + q1hz [1] $end
$var wire 1 , q1hz [0] $end
$var wire 1 - q1khz [7] $end
$var wire 1 . q1khz [6] $end
$var wire 1 / q1khz [5] $end
$var wire 1 0 q1khz [4] $end
$var wire 1 1 q1khz [3] $end
$var wire 1 2 q1khz [2] $end
$var wire 1 3 q1khz [1] $end
$var wire 1 4 q1khz [0] $end
$var wire 1 5 q153khz [8] $end
$var wire 1 6 q153khz [7] $end
$var wire 1 7 q153khz [6] $end
$var wire 1 8 q153khz [5] $end
$var wire 1 9 q153khz [4] $end
$var wire 1 : q153khz [3] $end
$var wire 1 ; q153khz [2] $end
$var wire 1 < q153khz [1] $end
$var wire 1 = q153khz [0] $end
$var wire 1 > q500hz [1] $end
$var wire 1 ? q500hz [0] $end
$var wire 1 @ sampler $end
$scope module i1 $end
$var wire 1 A gnd $end
$var wire 1 B vcc $end
$var wire 1 C unknown $end
$var tri1 1 D devclrn $end
$var tri1 1 E devpor $end
$var tri1 1 F devoe $end
$var wire 1 G cout~output_o $end
$var wire 1 H q153khz[8]~output_o $end
$var wire 1 I q153khz[7]~output_o $end
$var wire 1 J q153khz[6]~output_o $end
$var wire 1 K q153khz[5]~output_o $end
$var wire 1 L q153khz[4]~output_o $end
$var wire 1 M q153khz[3]~output_o $end
$var wire 1 N q153khz[2]~output_o $end
$var wire 1 O q153khz[1]~output_o $end
$var wire 1 P q153khz[0]~output_o $end
$var wire 1 Q q1hz[8]~output_o $end
$var wire 1 R q1hz[7]~output_o $end
$var wire 1 S q1hz[6]~output_o $end
$var wire 1 T q1hz[5]~output_o $end
$var wire 1 U q1hz[4]~output_o $end
$var wire 1 V q1hz[3]~output_o $end
$var wire 1 W q1hz[2]~output_o $end
$var wire 1 X q1hz[1]~output_o $end
$var wire 1 Y q1hz[0]~output_o $end
$var wire 1 Z q1khz[7]~output_o $end
$var wire 1 [ q1khz[6]~output_o $end
$var wire 1 \ q1khz[5]~output_o $end
$var wire 1 ] q1khz[4]~output_o $end
$var wire 1 ^ q1khz[3]~output_o $end
$var wire 1 _ q1khz[2]~output_o $end
$var wire 1 ` q1khz[1]~output_o $end
$var wire 1 a q1khz[0]~output_o $end
$var wire 1 b q500hz[1]~output_o $end
$var wire 1 c q500hz[0]~output_o $end
$var wire 1 d clk_fpga~input_o $end
$var wire 1 e clk_fpga~inputclkctrl_outclk $end
$var wire 1 f cin~input_o $end
$var wire 1 g inst|LPM_COUNTER_component|auto_generated|counter_comb_bita0~1_cout $end
$var wire 1 h inst|LPM_COUNTER_component|auto_generated|counter_comb_bita0~combout $end
$var wire 1 i ~GND~combout $end
$var wire 1 j inst|LPM_COUNTER_component|auto_generated|counter_comb_bita0~COUT $end
$var wire 1 k inst|LPM_COUNTER_component|auto_generated|counter_comb_bita1~combout $end
$var wire 1 l inst|LPM_COUNTER_component|auto_generated|counter_comb_bita1~COUT $end
$var wire 1 m inst|LPM_COUNTER_component|auto_generated|counter_comb_bita2~combout $end
$var wire 1 n inst|LPM_COUNTER_component|auto_generated|counter_comb_bita2~COUT $end
$var wire 1 o inst|LPM_COUNTER_component|auto_generated|counter_comb_bita3~combout $end
$var wire 1 p inst|LPM_COUNTER_component|auto_generated|counter_comb_bita3~COUT $end
$var wire 1 q inst|LPM_COUNTER_component|auto_generated|counter_comb_bita4~combout $end
$var wire 1 r inst|LPM_COUNTER_component|auto_generated|counter_comb_bita4~COUT $end
$var wire 1 s inst|LPM_COUNTER_component|auto_generated|counter_comb_bita5~combout $end
$var wire 1 t inst|LPM_COUNTER_component|auto_generated|time_to_clear~1_combout $end
$var wire 1 u inst|LPM_COUNTER_component|auto_generated|time_to_clear~2_combout $end
$var wire 1 v inst|LPM_COUNTER_component|auto_generated|counter_comb_bita5~COUT $end
$var wire 1 w inst|LPM_COUNTER_component|auto_generated|counter_comb_bita6~combout $end
$var wire 1 x inst|LPM_COUNTER_component|auto_generated|counter_comb_bita6~COUT $end
$var wire 1 y inst|LPM_COUNTER_component|auto_generated|counter_comb_bita7~combout $end
$var wire 1 z inst|LPM_COUNTER_component|auto_generated|counter_comb_bita7~COUT $end
$var wire 1 { inst|LPM_COUNTER_component|auto_generated|counter_comb_bita8~combout $end
$var wire 1 | inst|LPM_COUNTER_component|auto_generated|counter_comb_bita8~COUT $end
$var wire 1 } inst|LPM_COUNTER_component|auto_generated|counter_comb_bita8~0_combout $end
$var wire 1 ~ inst|LPM_COUNTER_component|auto_generated|time_to_clear~0_combout $end
$var wire 1 !! inst|LPM_COUNTER_component|auto_generated|cout_actual~combout $end
$var wire 1 "! inst1|LPM_COUNTER_component|auto_generated|counter_comb_bita0~1_cout $end
$var wire 1 #! inst1|LPM_COUNTER_component|auto_generated|counter_comb_bita0~combout $end
$var wire 1 $! inst1|LPM_COUNTER_component|auto_generated|time_to_clear~1_combout $end
$var wire 1 %! inst1|LPM_COUNTER_component|auto_generated|counter_comb_bita4~COUT $end
$var wire 1 &! inst1|LPM_COUNTER_component|auto_generated|counter_comb_bita5~combout $end
$var wire 1 '! inst1|LPM_COUNTER_component|auto_generated|counter_comb_bita5~COUT $end
$var wire 1 (! inst1|LPM_COUNTER_component|auto_generated|counter_comb_bita6~combout $end
$var wire 1 )! inst1|LPM_COUNTER_component|auto_generated|counter_comb_bita6~COUT $end
$var wire 1 *! inst1|LPM_COUNTER_component|auto_generated|counter_comb_bita7~combout $end
$var wire 1 +! inst1|LPM_COUNTER_component|auto_generated|counter_comb_bita7~COUT $end
$var wire 1 ,! inst1|LPM_COUNTER_component|auto_generated|counter_comb_bita7~0_combout $end
$var wire 1 -! inst2|LPM_COUNTER_component|auto_generated|cout_actual~3_combout $end
$var wire 1 .! inst1|LPM_COUNTER_component|auto_generated|counter_comb_bita0~COUT $end
$var wire 1 /! inst1|LPM_COUNTER_component|auto_generated|counter_comb_bita1~combout $end
$var wire 1 0! inst1|LPM_COUNTER_component|auto_generated|counter_comb_bita1~COUT $end
$var wire 1 1! inst1|LPM_COUNTER_component|auto_generated|counter_comb_bita2~combout $end
$var wire 1 2! inst1|LPM_COUNTER_component|auto_generated|counter_comb_bita2~COUT $end
$var wire 1 3! inst1|LPM_COUNTER_component|auto_generated|counter_comb_bita3~combout $end
$var wire 1 4! inst1|LPM_COUNTER_component|auto_generated|counter_comb_bita3~COUT $end
$var wire 1 5! inst1|LPM_COUNTER_component|auto_generated|counter_comb_bita4~combout $end
$var wire 1 6! inst1|LPM_COUNTER_component|auto_generated|time_to_clear~0_combout $end
$var wire 1 7! inst1|LPM_COUNTER_component|auto_generated|time_to_clear~combout $end
$var wire 1 8! inst2|LPM_COUNTER_component|auto_generated|trigger_mux_w[0]~0_combout $end
$var wire 1 9! inst2|LPM_COUNTER_component|auto_generated|cout_actual~2_combout $end
$var wire 1 :! inst3|LPM_COUNTER_component|auto_generated|counter_comb_bita0~1_cout $end
$var wire 1 ;! inst3|LPM_COUNTER_component|auto_generated|counter_comb_bita0~combout $end
$var wire 1 <! inst3|LPM_COUNTER_component|auto_generated|counter_comb_bita0~COUT $end
$var wire 1 =! inst3|LPM_COUNTER_component|auto_generated|counter_comb_bita1~combout $end
$var wire 1 >! inst3|LPM_COUNTER_component|auto_generated|counter_comb_bita1~COUT $end
$var wire 1 ?! inst3|LPM_COUNTER_component|auto_generated|counter_comb_bita2~combout $end
$var wire 1 @! inst3|LPM_COUNTER_component|auto_generated|counter_comb_bita2~COUT $end
$var wire 1 A! inst3|LPM_COUNTER_component|auto_generated|counter_comb_bita3~combout $end
$var wire 1 B! inst3|LPM_COUNTER_component|auto_generated|counter_comb_bita3~COUT $end
$var wire 1 C! inst3|LPM_COUNTER_component|auto_generated|counter_comb_bita4~combout $end
$var wire 1 D! inst3|LPM_COUNTER_component|auto_generated|counter_comb_bita4~COUT $end
$var wire 1 E! inst3|LPM_COUNTER_component|auto_generated|counter_comb_bita5~combout $end
$var wire 1 F! inst3|LPM_COUNTER_component|auto_generated|counter_comb_bita5~COUT $end
$var wire 1 G! inst3|LPM_COUNTER_component|auto_generated|counter_comb_bita6~combout $end
$var wire 1 H! inst3|LPM_COUNTER_component|auto_generated|counter_comb_bita6~COUT $end
$var wire 1 I! inst3|LPM_COUNTER_component|auto_generated|counter_comb_bita7~combout $end
$var wire 1 J! inst3|LPM_COUNTER_component|auto_generated|counter_comb_bita7~COUT $end
$var wire 1 K! inst3|LPM_COUNTER_component|auto_generated|counter_comb_bita8~combout $end
$var wire 1 L! inst3|LPM_COUNTER_component|auto_generated|time_to_clear~0_combout $end
$var wire 1 M! inst3|LPM_COUNTER_component|auto_generated|time_to_clear~1_combout $end
$var wire 1 N! inst3|LPM_COUNTER_component|auto_generated|time_to_clear~2_combout $end
$var wire 1 O! inst3|LPM_COUNTER_component|auto_generated|counter_comb_bita8~COUT $end
$var wire 1 P! inst3|LPM_COUNTER_component|auto_generated|counter_comb_bita8~0_combout $end
$var wire 1 Q! inst3|LPM_COUNTER_component|auto_generated|cout_actual~combout $end
$var wire 1 R! inst|LPM_COUNTER_component|auto_generated|counter_reg_bit [8] $end
$var wire 1 S! inst|LPM_COUNTER_component|auto_generated|counter_reg_bit [7] $end
$var wire 1 T! inst|LPM_COUNTER_component|auto_generated|counter_reg_bit [6] $end
$var wire 1 U! inst|LPM_COUNTER_component|auto_generated|counter_reg_bit [5] $end
$var wire 1 V! inst|LPM_COUNTER_component|auto_generated|counter_reg_bit [4] $end
$var wire 1 W! inst|LPM_COUNTER_component|auto_generated|counter_reg_bit [3] $end
$var wire 1 X! inst|LPM_COUNTER_component|auto_generated|counter_reg_bit [2] $end
$var wire 1 Y! inst|LPM_COUNTER_component|auto_generated|counter_reg_bit [1] $end
$var wire 1 Z! inst|LPM_COUNTER_component|auto_generated|counter_reg_bit [0] $end
$var wire 1 [! inst2|LPM_COUNTER_component|auto_generated|counter_reg_bit [1] $end
$var wire 1 \! inst2|LPM_COUNTER_component|auto_generated|counter_reg_bit [0] $end
$var wire 1 ]! inst1|LPM_COUNTER_component|auto_generated|counter_reg_bit [7] $end
$var wire 1 ^! inst1|LPM_COUNTER_component|auto_generated|counter_reg_bit [6] $end
$var wire 1 _! inst1|LPM_COUNTER_component|auto_generated|counter_reg_bit [5] $end
$var wire 1 `! inst1|LPM_COUNTER_component|auto_generated|counter_reg_bit [4] $end
$var wire 1 a! inst1|LPM_COUNTER_component|auto_generated|counter_reg_bit [3] $end
$var wire 1 b! inst1|LPM_COUNTER_component|auto_generated|counter_reg_bit [2] $end
$var wire 1 c! inst1|LPM_COUNTER_component|auto_generated|counter_reg_bit [1] $end
$var wire 1 d! inst1|LPM_COUNTER_component|auto_generated|counter_reg_bit [0] $end
$var wire 1 e! inst3|LPM_COUNTER_component|auto_generated|counter_reg_bit [8] $end
$var wire 1 f! inst3|LPM_COUNTER_component|auto_generated|counter_reg_bit [7] $end
$var wire 1 g! inst3|LPM_COUNTER_component|auto_generated|counter_reg_bit [6] $end
$var wire 1 h! inst3|LPM_COUNTER_component|auto_generated|counter_reg_bit [5] $end
$var wire 1 i! inst3|LPM_COUNTER_component|auto_generated|counter_reg_bit [4] $end
$var wire 1 j! inst3|LPM_COUNTER_component|auto_generated|counter_reg_bit [3] $end
$var wire 1 k! inst3|LPM_COUNTER_component|auto_generated|counter_reg_bit [2] $end
$var wire 1 l! inst3|LPM_COUNTER_component|auto_generated|counter_reg_bit [1] $end
$var wire 1 m! inst3|LPM_COUNTER_component|auto_generated|counter_reg_bit [0] $end
$upscope $end
$upscope $end
$enddefinitions $end
#0
$dumpvars
1!
0"
0#
0,
0+
0*
0)
0(
0'
0&
0%
0$
04
03
02
01
00
0/
0.
0-
0=
0<
0;
0:
09
08
07
06
05
0?
0>
x@
0A
1B
xC
1D
1E
1F
0G
0H
0I
0J
0K
0L
0M
0N
0O
0P
0Q
0R
0S
0T
0U
0V
0W
0X
0Y
0Z
0[
0\
0]
0^
0_
0`
0a
0b
0c
0d
0e
1f
1g
1h
0i
1j
0k
0l
0m
1n
0o
0p
0q
1r
0s
1t
0u
0v
0w
1x
0y
0z
0{
1|
0}
1~
0!!
0"!
0#!
0$!
1%!
0&!
0'!
0(!
1)!
0*!
0+!
0,!
0-!
1.!
0/!
00!
01!
12!
03!
04!
05!
16!
07!
08!
09!
0:!
0;!
1<!
0=!
0>!
0?!
1@!
0A!
0B!
0C!
1D!
0E!
0F!
0G!
1H!
0I!
0J!
0K!
1L!
1M!
0N!
1O!
0P!
0Q!
0Z!
0Y!
0X!
0W!
0V!
0U!
0T!
0S!
0R!
0\!
z[!
0d!
0c!
0b!
0a!
0`!
0_!
0^!
0]!
0m!
0l!
0k!
0j!
0i!
0h!
0g!
0f!
0e!
$end
#10000
1"
1d
1e
0@
1Z!
1u
0j
0h
1P
1=
1!!
1k
1"!
1#!
#20000
0"
0d
0e
1@
#30000
1"
1d
1e
0@
1d!
0Z!
1$!
0.!
0#!
0u
1j
1h
1a
0P
14
0=
17!
1-!
1/!
0!!
0k
18!
07!
0-!
0"!
08!
1.!
1#!
0/!
#40000
0"
0d
0e
1@
#50000
1"
1d
1e
0@
1Z!
1u
0j
0h
1P
1=
1!!
1k
17!
1-!
1"!
18!
0.!
0#!
1/!
#60000
0"
0d
0e
1@
#70000
1"
1d
1e
0@
1\!
0d!
0Z!
19!
08!
0$!
1.!
1#!
0u
1j
1h
1c
0a
0P
1?
04
0=
1:!
07!
0-!
0/!
0!!
0k
1;!
09!
18!
0"!
0:!
0#!
0;!
#80000
0"
0d
0e
1@
#90000
1"
1d
1e
0@
1Z!
1u
0j
0h
1P
1=
1!!
1k
1"!
1#!
#100000
0"
0d
0e
1@
#110000
1"
1d
1e
0@
1d!
0Z!
1$!
0.!
0#!
0u
1j
1h
1a
0P
14
0=
17!
1-!
1/!
0!!
0k
19!
08!
07!
0-!
0"!
1:!
09!
18!
1.!
1#!
1;!
0:!
0/!
0;!
#120000
0"
0d
0e
1@
#130000
1"
1d
1e
0@
1Z!
1u
0j
0h
1P
1=
1!!
1k
17!
1-!
1"!
19!
08!
0.!
0#!
1:!
1/!
1;!
#140000
0"
0d
0e
1@
#150000
1"
1d
1e
0@
1m!
0\!
0d!
0Z!
1N!
0<!
0;!
09!
18!
0$!
1.!
1#!
0u
1j
1h
1Y
0c
0a
0P
1,
0?
04
0=
1=!
0:!
07!
0-!
0/!
0!!
0k
1<!
1;!
08!
0"!
0=!
0#!
#160000
0"
0d
0e
1@
#170000
1"
1d
1e
0@
1Z!
1u
0j
0h
1P
1=
1!!
1k
1"!
1#!
#180000
0"
0d
0e
1@
#190000
1"
1d
1e
0@
1d!
0Z!
1$!
0.!
0#!
0u
1j
1h
1a
0P
14
0=
17!
1-!
1/!
0!!
0k
18!
07!
0-!
0"!
08!
1.!
1#!
0/!
#200000
0"
0d
0e
1@
#210000
1"
1d
1e
0@
1Z!
1u
0j
0h
1P
1=
1!!
1k
17!
1-!
1"!
18!
0.!
0#!
1/!
#220000
0"
0d
0e
1@
#230000
1"
1d
1e
0@
1\!
0d!
0Z!
19!
08!
0$!
1.!
1#!
0u
1j
1h
1c
0a
0P
1?
04
0=
1:!
07!
0-!
0/!
0!!
0k
1Q!
0<!
0;!
09!
18!
0"!
1G
1#
1=!
0:!
0#!
0Q!
1<!
1;!
0G
0#
0=!
#240000
0"
0d
0e
1@
#250000
1"
1d
1e
0@
1Z!
1u
0j
0h
1P
1=
1!!
1k
1"!
1#!
#260000
0"
0d
0e
1@
#270000
1"
1d
1e
0@
1d!
0Z!
1$!
0.!
0#!
0u
1j
1h
1a
0P
14
0=
17!
1-!
1/!
0!!
0k
19!
08!
07!
0-!
0"!
1:!
09!
18!
1.!
1#!
1Q!
0<!
0;!
0:!
0/!
1G
1#
0Q!
1=!
1<!
1;!
0G
0#
0=!
#280000
0"
0d
0e
1@
#290000
1"
1d
1e
0@
1Z!
1u
0j
0h
1P
1=
1!!
1k
17!
1-!
1"!
19!
08!
0.!
0#!
1:!
1/!
1Q!
0<!
0;!
1G
1#
1=!
#300000
0"
0d
0e
1@
#310000
1"
1d
1e
0@
0m!
0\!
0d!
0Z!
0N!
1<!
1;!
09!
18!
0$!
1.!
1#!
0u
1j
1h
0Y
0c
0a
0P
0,
0?
04
0=
0=!
0:!
07!
0-!
0/!
0!!
0k
0Q!
0;!
08!
0"!
0G
0#
0#!
#320000
0"
0d
0e
1@
#330000
1"
1d
1e
0@
1Z!
1u
0j
0h
1P
1=
1!!
1k
1"!
1#!
#340000
0"
0d
0e
1@
#350000
1"
1d
1e
0@
1d!
0Z!
1$!
0.!
0#!
0u
1j
1h
1a
0P
14
0=
17!
1-!
1/!
0!!
0k
18!
07!
0-!
0"!
08!
1.!
1#!
0/!
#360000
0"
0d
0e
1@
#370000
1"
1d
1e
0@
1Z!
1u
0j
0h
1P
1=
1!!
1k
17!
1-!
1"!
18!
0.!
0#!
1/!
#380000
0"
0d
0e
1@
#390000
1"
1d
1e
0@
1\!
0d!
0Z!
19!
08!
0$!
1.!
1#!
0u
1j
1h
1c
0a
0P
1?
04
0=
1:!
07!
0-!
0/!
0!!
0k
1;!
09!
18!
0"!
0:!
0#!
0;!
#400000
0"
0d
0e
1@
#410000
1"
1d
1e
0@
1Z!
1u
0j
0h
1P
1=
1!!
1k
1"!
1#!
#420000
0"
0d
0e
1@
#430000
1"
1d
1e
0@
1d!
0Z!
1$!
0.!
0#!
0u
1j
1h
1a
0P
14
0=
17!
1-!
1/!
0!!
0k
19!
08!
07!
0-!
0"!
1:!
09!
18!
1.!
1#!
1;!
0:!
0/!
0;!
#440000
0"
0d
0e
1@
#450000
1"
1d
1e
0@
1Z!
1u
0j
0h
1P
1=
1!!
1k
17!
1-!
1"!
19!
08!
0.!
0#!
1:!
1/!
1;!
#460000
0"
0d
0e
1@
#470000
1"
1d
1e
0@
1m!
0\!
0d!
0Z!
1N!
0<!
0;!
09!
18!
0$!
1.!
1#!
0u
1j
1h
1Y
0c
0a
0P
1,
0?
04
0=
1=!
0:!
07!
0-!
0/!
0!!
0k
1<!
1;!
08!
0"!
0=!
0#!
#480000
0"
0d
0e
1@
#490000
1"
1d
1e
0@
1Z!
1u
0j
0h
1P
1=
1!!
1k
1"!
1#!
#500000
0"
0d
0e
1@
#510000
1"
1d
1e
0@
1d!
0Z!
1$!
0.!
0#!
0u
1j
1h
1a
0P
14
0=
17!
1-!
1/!
0!!
0k
18!
07!
0-!
0"!
08!
1.!
1#!
0/!
#520000
0"
0d
0e
1@
#530000
1"
1d
1e
0@
1Z!
1u
0j
0h
1P
1=
1!!
1k
17!
1-!
1"!
18!
0.!
0#!
1/!
#540000
0"
0d
0e
1@
#550000
1"
1d
1e
0@
1\!
0d!
0Z!
19!
08!
0$!
1.!
1#!
0u
1j
1h
1c
0a
0P
1?
04
0=
1:!
07!
0-!
0/!
0!!
0k
1Q!
0<!
0;!
09!
18!
0"!
1G
1#
1=!
0:!
0#!
0Q!
1<!
1;!
0G
0#
0=!
#560000
0"
0d
0e
1@
#570000
1"
1d
1e
0@
1Z!
1u
0j
0h
1P
1=
1!!
1k
1"!
1#!
#580000
0"
0d
0e
1@
#590000
1"
1d
1e
0@
1d!
0Z!
1$!
0.!
0#!
0u
1j
1h
1a
0P
14
0=
17!
1-!
1/!
0!!
0k
19!
08!
07!
0-!
0"!
1:!
09!
18!
1.!
1#!
1Q!
0<!
0;!
0:!
0/!
1G
1#
0Q!
1=!
1<!
1;!
0G
0#
0=!
#600000
0"
0d
0e
1@
#610000
1"
1d
1e
0@
1Z!
1u
0j
0h
1P
1=
1!!
1k
17!
1-!
1"!
19!
08!
0.!
0#!
1:!
1/!
1Q!
0<!
0;!
1G
1#
1=!
#620000
0"
0d
0e
1@
#630000
1"
1d
1e
0@
0m!
0\!
0d!
0Z!
0N!
1<!
1;!
09!
18!
0$!
1.!
1#!
0u
1j
1h
0Y
0c
0a
0P
0,
0?
04
0=
0=!
0:!
07!
0-!
0/!
0!!
0k
0Q!
0;!
08!
0"!
0G
0#
0#!
#640000
0"
0d
0e
1@
#650000
1"
1d
1e
0@
1Z!
1u
0j
0h
1P
1=
1!!
1k
1"!
1#!
#660000
0"
0d
0e
1@
#670000
1"
1d
1e
0@
1d!
0Z!
1$!
0.!
0#!
0u
1j
1h
1a
0P
14
0=
17!
1-!
1/!
0!!
0k
18!
07!
0-!
0"!
08!
1.!
1#!
0/!
#680000
0"
0d
0e
1@
#690000
1"
1d
1e
0@
1Z!
1u
0j
0h
1P
1=
1!!
1k
17!
1-!
1"!
18!
0.!
0#!
1/!
#700000
0"
0d
0e
1@
#710000
1"
1d
1e
0@
1\!
0d!
0Z!
19!
08!
0$!
1.!
1#!
0u
1j
1h
1c
0a
0P
1?
04
0=
1:!
07!
0-!
0/!
0!!
0k
1;!
09!
18!
0"!
0:!
0#!
0;!
#720000
0"
0d
0e
1@
#730000
1"
1d
1e
0@
1Z!
1u
0j
0h
1P
1=
1!!
1k
1"!
1#!
#740000
0"
0d
0e
1@
#750000
1"
1d
1e
0@
1d!
0Z!
1$!
0.!
0#!
0u
1j
1h
1a
0P
14
0=
17!
1-!
1/!
0!!
0k
19!
08!
07!
0-!
0"!
1:!
09!
18!
1.!
1#!
1;!
0:!
0/!
0;!
#760000
0"
0d
0e
1@
#770000
1"
1d
1e
0@
1Z!
1u
0j
0h
1P
1=
1!!
1k
17!
1-!
1"!
19!
08!
0.!
0#!
1:!
1/!
1;!
#780000
0"
0d
0e
1@
#790000
1"
1d
1e
0@
1m!
0\!
0d!
0Z!
1N!
0<!
0;!
09!
18!
0$!
1.!
1#!
0u
1j
1h
1Y
0c
0a
0P
1,
0?
04
0=
1=!
0:!
07!
0-!
0/!
0!!
0k
1<!
1;!
08!
0"!
0=!
0#!
#800000
0"
0d
0e
1@
#810000
1"
1d
1e
0@
1Z!
1u
0j
0h
1P
1=
1!!
1k
1"!
1#!
#820000
0"
0d
0e
1@
#830000
1"
1d
1e
0@
1d!
0Z!
1$!
0.!
0#!
0u
1j
1h
1a
0P
14
0=
17!
1-!
1/!
0!!
0k
18!
07!
0-!
0"!
08!
1.!
1#!
0/!
#840000
0"
0d
0e
1@
#850000
1"
1d
1e
0@
1Z!
1u
0j
0h
1P
1=
1!!
1k
17!
1-!
1"!
18!
0.!
0#!
1/!
#860000
0"
0d
0e
1@
#870000
1"
1d
1e
0@
1\!
0d!
0Z!
19!
08!
0$!
1.!
1#!
0u
1j
1h
1c
0a
0P
1?
04
0=
1:!
07!
0-!
0/!
0!!
0k
1Q!
0<!
0;!
09!
18!
0"!
1G
1#
1=!
0:!
0#!
0Q!
1<!
1;!
0G
0#
0=!
#880000
0"
0d
0e
1@
#890000
1"
1d
1e
0@
1Z!
1u
0j
0h
1P
1=
1!!
1k
1"!
1#!
#900000
0"
0d
0e
1@
#910000
1"
1d
1e
0@
1d!
0Z!
1$!
0.!
0#!
0u
1j
1h
1a
0P
14
0=
17!
1-!
1/!
0!!
0k
19!
08!
07!
0-!
0"!
1:!
09!
18!
1.!
1#!
1Q!
0<!
0;!
0:!
0/!
1G
1#
0Q!
1=!
1<!
1;!
0G
0#
0=!
#920000
0"
0d
0e
1@
#930000
1"
1d
1e
0@
1Z!
1u
0j
0h
1P
1=
1!!
1k
17!
1-!
1"!
19!
08!
0.!
0#!
1:!
1/!
1Q!
0<!
0;!
1G
1#
1=!
#940000
0"
0d
0e
1@
#950000
1"
1d
1e
0@
0m!
0\!
0d!
0Z!
0N!
1<!
1;!
09!
18!
0$!
1.!
1#!
0u
1j
1h
0Y
0c
0a
0P
0,
0?
04
0=
0=!
0:!
07!
0-!
0/!
0!!
0k
0Q!
0;!
08!
0"!
0G
0#
0#!
#960000
0"
0d
0e
1@
#970000
1"
1d
1e
0@
1Z!
1u
0j
0h
1P
1=
1!!
1k
1"!
1#!
#980000
0"
0d
0e
1@
#990000
0!
1"
0f
1d
1e
0@
0~
0g
0!!
1j
1h
0"!
0k
0#!
1d!
0Z!
1$!
1#!
0u
0h
1a
0P
14
0=
