1.4_ligadesliga/simulation/qsim/historia4.msim.vcd
$comment
	File created using the following command:
		vcd file historia4.msim.vcd -direction
$end
$date
	Tue Apr 10 23:02:13 2018
$end
$version
	ModelSim Version 10.1d
$end
$timescale
	1ps
$end
$scope module historia4_vlg_vec_tst $end
$var reg 1 ! botao $end
$var reg 1 " clk_1khz $end
$var reg 1 # clk_153khz $end
$var wire 1 $ off $end
$var wire 1 % rst $end
$var wire 1 & Standby $end
$var wire 1 ' sampler $end
$scope module i1 $end
$var wire 1 ( gnd $end
$var wire 1 ) vcc $end
$var wire 1 * unknown $end
$var tri1 1 + devclrn $end
$var tri1 1 , devpor $end
$var tri1 1 - devoe $end
$var wire 1 . Standby~output_o $end
$var wire 1 / off~output_o $end
$var wire 1 0 rst~output_o $end
$var wire 1 1 clk_153khz~input_o $end
$var wire 1 2 clk_153khz~inputclkctrl_outclk $end
$var wire 1 3 botao~input_o $end
$var wire 1 4 botao~inputclkctrl_outclk $end
$var wire 1 5 clk_1khz~input_o $end
$var wire 1 6 inst|OP1~feeder_combout $end
$var wire 1 7 inst|OP1~q $end
$var wire 1 8 inst|OP2~feeder_combout $end
$var wire 1 9 inst|OP2~q $end
$var wire 1 : inst|OP3~feeder_combout $end
$var wire 1 ; inst|OP3~q $end
$var wire 1 < inst1|Selector1~0_combout $end
$var wire 1 = inst1|Selector1~1_combout $end
$var wire 1 > inst1|est.reset~q $end
$var wire 1 ? inst1|Selector2~0_combout $end
$var wire 1 @ inst1|est.ligado~q $end
$var wire 1 A inst1|Selector1~2_combout $end
$var wire 1 B inst1|Selector0~1_combout $end
$var wire 1 C inst1|Selector0~2_combout $end
$var wire 1 D inst1|est.espera~q $end
$var wire 1 E inst1|Selector0~0_combout $end
$var wire 1 F inst1|est.desligado~q $end
$var wire 1 G inst1|Standby~combout $end
$upscope $end
$upscope $end
$enddefinitions $end
#0
$dumpvars
0!
0"
0#
1$
0%
1&
x'
0(
1)
x*
1+
1,
1-
1.
1/
00
01
02
03
04
05
06
07
08
09
0:
0;
0<
0=
0>
0?
0@
0A
1B
0C
0D
1E
0F
1G
$end
#5000
1#
11
12
0'
#10000
0#
01
02
1'
#15000
1#
11
12
0'
#20000
0#
01
02
1'
#25000
1#
11
12
0'
#30000
1!
1"
0#
13
15
01
14
02
1'
16
#35000
1#
11
12
0'
#40000
0#
01
02
1'
#45000
1#
11
12
0'
#50000
0#
01
02
1'
#55000
1#
11
12
0'
#60000
0"
0#
05
01
02
1'
06
#65000
1#
11
12
0'
#70000
0#
01
02
1'
#75000
1#
11
12
0'
#80000
0#
01
02
1'
#85000
1#
11
12
0'
#90000
1"
0#
15
01
02
1'
16
#95000
1#
11
12
0'
#100000
0#
01
02
1'
#105000
1#
11
12
0'
#110000
0#
01
02
1'
#115000
1#
11
12
0'
#120000
0"
0#
05
01
02
1'
06
#125000
1#
11
12
0'
#130000
0#
01
02
1'
#135000
1#
11
12
0'
#140000
0#
01
02
1'
#145000
1#
11
12
0'
#150000
1"
0#
15
01
02
1'
16
#155000
1#
11
12
0'
#160000
0#
01
02
1'
#165000
1#
11
12
0'
#170000
0#
01
02
1'
#175000
1#
11
12
0'
#180000
0"
0#
05
01
02
1'
06
#185000
1#
11
12
0'
#190000
0!
0#
03
01
04
02
1'
#195000
1#
11
12
0'
#200000
0#
01
02
1'
#205000
1#
11
12
0'
#210000
1"
0#
15
01
02
1'
16
#215000
1#
11
12
0'
#220000
0#
01
02
1'
#225000
1#
11
12
0'
#230000
0#
01
02
1'
#235000
1#
11
12
0'
#240000
0"
0#
05
01
02
1'
06
#245000
1#
11
12
0'
#250000
0#
01
02
1'
#255000
1#
11
12
0'
#260000
0#
01
02
1'
#265000
1#
11
12
0'
#270000
1"
0#
15
01
02
1'
16
#275000
1#
11
12
0'
#280000
0#
01
02
1'
#285000
1#
11
12
0'
#290000
0#
01
02
1'
#295000
1#
11
12
0'
#300000
0"
0#
05
01
02
1'
06
#305000
1#
11
12
0'
#310000
0#
01
02
1'
#315000
1#
11
12
0'
#320000
0#
01
02
1'
#325000
1#
11
12
0'
#330000
1"
0#
15
01
02
1'
16
#335000
1#
11
12
0'
#340000
0#
01
02
1'
#345000
1#
11
12
0'
#350000
0#
01
02
1'
#355000
1#
11
12
0'
#360000
0"
0#
05
01
02
1'
06
#365000
1#
11
12
0'
#370000
0#
01
02
1'
#375000
1#
11
12
0'
#380000
0#
01
02
1'
#385000
1#
11
12
0'
#390000
1!
1"
0#
13
15
01
14
02
1'
16
#395000
1#
11
12
0'
#400000
0#
01
02
1'
#405000
1#
11
12
0'
#410000
0#
01
02
1'
#415000
1#
11
12
0'
#420000
0"
0#
05
01
02
1'
06
#425000
1#
11
12
0'
#430000
0#
01
02
1'
#435000
1#
11
12
0'
#440000
0#
01
02
1'
#445000
1#
11
12
0'
#450000
1"
0#
15
01
02
1'
16
#455000
1#
11
12
0'
#460000
0#
01
02
1'
#465000
1#
11
12
0'
#470000
0#
01
02
1'
#475000
1#
11
12
0'
#480000
0"
0#
05
01
02
1'
06
#485000
1#
11
12
0'
#490000
0#
01
02
1'
#495000
1#
11
12
0'
#500000
0#
01
02
1'
#505000
1#
11
12
0'
#510000
1"
0#
15
01
02
1'
16
#515000
1#
11
12
0'
#520000
0#
01
02
1'
#525000
1#
11
12
0'
#530000
0#
01
02
1'
#535000
1#
11
12
0'
#540000
0"
0#
05
01
02
1'
06
#545000
1#
11
12
0'
#550000
0#
01
02
1'
#555000
1#
11
12
0'
#560000
0#
01
02
1'
#565000
1#
11
12
0'
#570000
1"
0#
15
01
02
1'
16
#575000
1#
11
12
0'
#580000
0!
0#
03
01
04
02
1'
#585000
1#
11
12
0'
#590000
0#
01
02
1'
#595000
1#
11
12
0'
#600000
0"
0#
05
01
02
1'
06
#605000
1#
11
12
0'
#610000
0#
01
02
1'
#615000
1#
11
12
0'
#620000
0#
01
02
1'
#625000
1#
11
12
0'
#630000
1"
0#
15
01
02
1'
16
#635000
1#
11
12
0'
#640000
0#
01
02
1'
#645000
1#
11
12
0'
#650000
0#
01
02
1'
#655000
1#
11
12
0'
#660000
0"
0#
05
01
02
1'
06
#665000
1#
11
12
0'
#670000
0#
01
02
1'
#675000
1#
11
12
0'
#680000
0#
01
02
1'
#685000
1#
11
12
0'
#690000
1"
0#
15
01
02
1'
16
#695000
1#
11
12
0'
#700000
0#
01
02
1'
#705000
1#
11
12
0'
#710000
0#
01
02
1'
#715000
1#
11
12
0'
#720000
0"
0#
05
01
02
1'
06
#725000
1#
11
12
0'
#730000
0#
01
02
1'
#735000
1#
11
12
0'
#740000
0#
01
02
1'
#745000
1#
11
12
0'
#750000
1"
0#
15
01
02
1'
16
#755000
1#
11
12
0'
#760000
1!
0#
13
01
14
02
1'
17
18
#765000
1#
11
12
0'
#770000
0#
01
02
1'
#775000
1#
11
12
0'
#780000
0"
0#
05
01
02
1'
06
#785000
1#
11
12
0'
#790000
0#
01
02
1'
#795000
1#
11
12
0'
#800000
0#
01
02
1'
#805000
1#
11
12
0'
#810000
1"
0#
15
01
02
1'
16
#815000
1#
11
12
0'
#820000
0#
01
02
1'
#825000
1#
11
12
0'
#830000
0#
01
02
1'
#835000
1#
11
12
0'
#840000
0"
0#
05
01
02
1'
06
#845000
1#
11
12
0'
#850000
0#
01
02
1'
#855000
1#
11
12
0'
#860000
0#
01
02
1'
#865000
1#
11
12
0'
#870000
1"
0#
15
01
02
1'
16
#875000
1#
11
12
0'
#880000
0#
01
02
1'
#885000
1#
11
12
0'
#890000
0#
01
02
1'
#895000
1#
11
12
0'
#900000
0"
0#
05
01
02
1'
06
#905000
1#
11
12
0'
#910000
0#
01
02
1'
#915000
1#
11
12
0'
#920000
0#
01
02
1'
#925000
1#
11
12
0'
#930000
1"
0#
15
01
02
1'
16
#935000
1#
11
12
0'
#940000
0#
01
02
1'
#945000
1#
11
12
0'
#950000
0#
01
02
1'
#955000
1#
11
12
0'
#960000
0"
0#
05
01
02
1'
06
#965000
1#
11
12
0'
#970000
0#
01
02
1'
#975000
1#
11
12
0'
#980000
0#
01
02
1'
#985000
1#
11
12
0'
#990000
0!
1"
0#
03
15
01
04
02
1'
16
#995000
1#
11
12
0'
