1.4_ligadesliga/simulation/qsim/historia4.msim.vcd
$comment
	File created using the following command:
		vcd file historia4.msim.vcd -direction
$end
$date
	Mon Apr 16 09:45:45 2018
$end
$version
	ModelSim Version 10.1d
$end
$timescale
	1ps
$end
$scope module historia4_vlg_vec_tst $end
$var reg 1 ! botao $end
$var reg 1 " clk_1khz $end
$var reg 1 # clk_153khz $end
$var wire 1 $ off $end
$var wire 1 % rst $end
$var wire 1 & Standby $end
$var wire 1 ' sampler $end
$scope module i1 $end
$var wire 1 ( gnd $end
$var wire 1 ) vcc $end
$var wire 1 * unknown $end
$var tri1 1 + devclrn $end
$var tri1 1 , devpor $end
$var tri1 1 - devoe $end
$var wire 1 . Standby~output_o $end
$var wire 1 / off~output_o $end
$var wire 1 0 rst~output_o $end
$var wire 1 1 clk_153khz~input_o $end
$var wire 1 2 clk_153khz~inputclkctrl_outclk $end
$var wire 1 3 clk_1khz~input_o $end
$var wire 1 4 clk_1khz~inputclkctrl_outclk $end
$var wire 1 5 botao~input_o $end
$var wire 1 6 inst|OP1~q $end
$var wire 1 7 inst|OP2~feeder_combout $end
$var wire 1 8 inst|OP2~q $end
$var wire 1 9 inst|OP3~feeder_combout $end
$var wire 1 : inst|OP3~q $end
$var wire 1 ; inst1|Selector1~2_combout $end
$var wire 1 < inst1|Selector0~0_combout $end
$var wire 1 = inst1|est.desligado~q $end
$var wire 1 > inst1|Selector0~1_combout $end
$var wire 1 ? inst1|Selector1~0_combout $end
$var wire 1 @ inst1|Selector0~2_combout $end
$var wire 1 A inst1|est.espera~q $end
$var wire 1 B inst1|Selector2~0_combout $end
$var wire 1 C inst1|est.ligado~q $end
$var wire 1 D inst1|Selector1~1_combout $end
$var wire 1 E inst1|est.reset~q $end
$var wire 1 F inst1|Standby~combout $end
$var wire 1 G inst2|TMonoestavel|cont~2_combout $end
$var wire 1 H inst2|TMonoestavel|cont[17]~1_combout $end
$var wire 1 I inst2|TMonoestavel|Add0~0_combout $end
$var wire 1 J inst2|TMonoestavel|cont~17_combout $end
$var wire 1 K inst2|TMonoestavel|Add0~1 $end
$var wire 1 L inst2|TMonoestavel|Add0~2_combout $end
$var wire 1 M inst2|TMonoestavel|cont~16_combout $end
$var wire 1 N inst2|TMonoestavel|Add0~3 $end
$var wire 1 O inst2|TMonoestavel|Add0~4_combout $end
$var wire 1 P inst2|TMonoestavel|cont~15_combout $end
$var wire 1 Q inst2|TMonoestavel|Add0~5 $end
$var wire 1 R inst2|TMonoestavel|Add0~6_combout $end
$var wire 1 S inst2|TMonoestavel|cont~14_combout $end
$var wire 1 T inst2|TMonoestavel|Add0~7 $end
$var wire 1 U inst2|TMonoestavel|Add0~8_combout $end
$var wire 1 V inst2|TMonoestavel|cont~13_combout $end
$var wire 1 W inst2|TMonoestavel|Add0~9 $end
$var wire 1 X inst2|TMonoestavel|Add0~10_combout $end
$var wire 1 Y inst2|TMonoestavel|cont~12_combout $end
$var wire 1 Z inst2|TMonoestavel|Add0~11 $end
$var wire 1 [ inst2|TMonoestavel|Add0~12_combout $end
$var wire 1 \ inst2|TMonoestavel|cont~11_combout $end
$var wire 1 ] inst2|TMonoestavel|Add0~13 $end
$var wire 1 ^ inst2|TMonoestavel|Add0~14_combout $end
$var wire 1 _ inst2|TMonoestavel|cont~10_combout $end
$var wire 1 ` inst2|TMonoestavel|Add0~15 $end
$var wire 1 a inst2|TMonoestavel|Add0~16_combout $end
$var wire 1 b inst2|TMonoestavel|cont~9_combout $end
$var wire 1 c inst2|TMonoestavel|Add0~17 $end
$var wire 1 d inst2|TMonoestavel|Add0~18_combout $end
$var wire 1 e inst2|TMonoestavel|cont~8_combout $end
$var wire 1 f inst2|TMonoestavel|Add0~19 $end
$var wire 1 g inst2|TMonoestavel|Add0~20_combout $end
$var wire 1 h inst2|TMonoestavel|cont~7_combout $end
$var wire 1 i inst2|TMonoestavel|Add0~21 $end
$var wire 1 j inst2|TMonoestavel|Add0~22_combout $end
$var wire 1 k inst2|TMonoestavel|cont~6_combout $end
$var wire 1 l inst2|TMonoestavel|Add0~23 $end
$var wire 1 m inst2|TMonoestavel|Add0~24_combout $end
$var wire 1 n inst2|TMonoestavel|cont~5_combout $end
$var wire 1 o inst2|TMonoestavel|Add0~25 $end
$var wire 1 p inst2|TMonoestavel|Add0~26_combout $end
$var wire 1 q inst2|TMonoestavel|cont~4_combout $end
$var wire 1 r inst2|TMonoestavel|Add0~27 $end
$var wire 1 s inst2|TMonoestavel|Add0~28_combout $end
$var wire 1 t inst2|TMonoestavel|cont~3_combout $end
$var wire 1 u inst2|TMonoestavel|Add0~29 $end
$var wire 1 v inst2|TMonoestavel|Add0~30_combout $end
$var wire 1 w inst2|TMonoestavel|cont~18_combout $end
$var wire 1 x inst2|TMonoestavel|Add0~31 $end
$var wire 1 y inst2|TMonoestavel|Add0~32_combout $end
$var wire 1 z inst2|TMonoestavel|cont~0_combout $end
$var wire 1 { inst2|TMonoestavel|Add0~33 $end
$var wire 1 | inst2|TMonoestavel|Add0~34_combout $end
$var wire 1 } inst2|TMonoestavel|Equal0~0_combout $end
$var wire 1 ~ inst2|TMonoestavel|Equal0~1_combout $end
$var wire 1 !! inst2|TMonoestavel|Equal0~2_combout $end
$var wire 1 "! inst2|TMonoestavel|Equal0~3_combout $end
$var wire 1 #! inst2|TMonoestavel|Equal0~4_combout $end
$var wire 1 $! inst2|TMonoestavel|Equal0~5_combout $end
$var wire 1 %! inst2|TMonoestavel|triggered~feeder_combout $end
$var wire 1 &! inst2|TMonoestavel|triggered~q $end
$var wire 1 '! inst2|TMonoestavel|cont [17] $end
$var wire 1 (! inst2|TMonoestavel|cont [16] $end
$var wire 1 )! inst2|TMonoestavel|cont [15] $end
$var wire 1 *! inst2|TMonoestavel|cont [14] $end
$var wire 1 +! inst2|TMonoestavel|cont [13] $end
$var wire 1 ,! inst2|TMonoestavel|cont [12] $end
$var wire 1 -! inst2|TMonoestavel|cont [11] $end
$var wire 1 .! inst2|TMonoestavel|cont [10] $end
$var wire 1 /! inst2|TMonoestavel|cont [9] $end
$var wire 1 0! inst2|TMonoestavel|cont [8] $end
$var wire 1 1! inst2|TMonoestavel|cont [7] $end
$var wire 1 2! inst2|TMonoestavel|cont [6] $end
$var wire 1 3! inst2|TMonoestavel|cont [5] $end
$var wire 1 4! inst2|TMonoestavel|cont [4] $end
$var wire 1 5! inst2|TMonoestavel|cont [3] $end
$var wire 1 6! inst2|TMonoestavel|cont [2] $end
$var wire 1 7! inst2|TMonoestavel|cont [1] $end
$var wire 1 8! inst2|TMonoestavel|cont [0] $end
$upscope $end
$upscope $end
$enddefinitions $end
#0
$dumpvars
1!
0"
0#
1$
0%
1&
x'
0(
1)
x*
1+
1,
1-
1.
1/
00
01
02
03
04
15
06
07
08
09
0:
0;
1<
0=
1>
0?
0@
0A
0B
0C
0D
0E
1F
0G
0H
1I
0J
0K
0L
0M
1N
0O
0P
0Q
0R
0S
1T
0U
0V
0W
0X
0Y
1Z
0[
0\
0]
0^
0_
1`
0a
0b
0c
0d
0e
1f
0g
0h
0i
0j
0k
1l
0m
0n
0o
0p
0q
1r
0s
0t
0u
0v
0w
1x
0y
0z
0{
0|
1}
1~
1!!
1"!
1#!
1$!
1%!
0&!
08!
07!
06!
05!
04!
03!
02!
01!
00!
0/!
0.!
0-!
0,!
0+!
0*!
0)!
0(!
0'!
$end
#5000
1#
11
12
0'
#10000
0#
01
02
1'
#15000
1#
11
12
0'
#20000
0#
01
02
1'
#25000
1#
11
12
0'
#30000
1"
0#
13
01
14
02
1'
16
17
#35000
1#
11
12
0'
#40000
0#
01
02
1'
#45000
1#
11
12
0'
#50000
0#
01
02
1'
#55000
1#
11
12
0'
#60000
0"
0#
03
01
04
02
1'
#65000
1#
11
12
0'
#70000
0#
01
02
1'
#75000
1#
11
12
0'
#80000
0#
01
02
1'
#85000
1#
11
12
0'
#90000
1"
0#
13
01
14
02
1'
18
19
#95000
1#
11
12
0'
#100000
0#
01
02
1'
#105000
1#
11
12
0'
#110000
0#
01
02
1'
#115000
1#
11
12
0'
#120000
0"
0#
03
01
04
02
1'
#125000
1#
11
12
0'
#130000
0#
01
02
1'
#135000
1#
11
12
0'
#140000
0#
01
02
1'
#145000
1#
11
12
0'
#150000
1"
0#
13
01
14
02
1'
1:
1?
1D
1@
#155000
1#
11
12
0'
1E
1=
1H
0>
0@
#160000
0#
01
02
1'
1&!
1J
10
1%
#165000
1#
11
12
0'
#170000
0!
0#
05
01
02
1'
18!
1K
0I
1L
0J
1M
#175000
1#
11
12
0'
#180000
0"
0#
03
01
04
02
1'
08!
17!
0K
1I
0N
0L
1N
1L
1J
1O
0M
0O
1M
1P
0P
#185000
1#
11
12
0'
#190000
0#
01
02
1'
18!
1K
0I
0N
0L
0J
1O
0M
1P
#195000
1#
11
12
0'
#200000
0#
01
02
1'
08!
07!
16!
0K
1I
1N
1L
1Q
0O
0L
1J
0Q
1O
1M
1R
0P
0M
0R
1P
1S
0S
#205000
1#
11
12
0'
#210000
1"
0#
13
01
14
02
1'
06
18!
0?
07
1K
0I
0D
1B
1@
1L
0J
1M
#215000
1#
11
12
0'
0E
1C
0@
1>
0F
0/
0.
0$
0&
#220000
0#
01
02
1'
08!
17!
0K
1I
0N
0L
1N
1L
1J
1Q
0O
0M
0Q
1O
1M
1R
0P
0R
1P
1S
0S
#225000
1#
11
12
0'
#230000
0#
01
02
1'
18!
1K
0I
0N
0L
0J
1Q
0O
0M
1R
0P
0}
1S
#235000
1#
11
12
0'
#240000
0"
0#
03
01
04
02
1'
08!
07!
06!
15!
0K
1I
1N
1L
0Q
1O
0T
0R
0L
1}
1J
0O
1M
1T
1R
1P
1U
0S
0M
0P
0U
1S
1V
0V
#245000
1#
11
12
0'
#250000
0#
01
02
1'
18!
1K
0I
1L
0}
0J
1}
1M
#255000
1#
11
12
0'
#260000
1!
0#
15
01
02
1'
08!
17!
0K
1I
0N
0L
1N
1L
1J
1O
0M
0O
1M
1P
0P
#265000
1#
11
12
0'
#270000
1"
0#
13
01
14
02
1'
08
16
18!
09
17
1K
0I
0N
0L
0J
1O
0}
0M
1}
1P
#275000
1#
11
12
0'
#280000
0#
01
02
1'
08!
07!
16!
0K
1I
1N
1L
1Q
0O
0L
1J
0Q
1O
1M
0T
0R
0P
0M
1T
1R
1P
1U
0S
0U
1S
1V
0V
#285000
1#
11
12
0'
#290000
0#
01
02
1'
18!
1K
0I
1L
0J
1M
#295000
1#
11
12
0'
#300000
0"
0#
03
01
04
02
1'
08!
17!
0K
1I
0N
0L
1N
1L
1J
1Q
0O
0M
0Q
1O
1M
0T
0R
0P
1T
1R
1P
1U
0S
0U
1S
1V
0V
#305000
1#
11
12
0'
#310000
0#
01
02
1'
18!
1K
0I
0N
0L
0J
1Q
0O
0M
0T
0R
0}
0P
1U
1}
0S
1V
#315000
1#
11
12
0'
#320000
0#
01
02
1'
08!
07!
06!
05!
14!
0K
1I
1N
1L
0Q
1O
1T
1R
1W
0U
0L
1J
0O
1M
0R
1P
0W
1U
1S
1X
0V
0M
0P
0S
0X
1V
1Y
0Y
#325000
1#
11
12
0'
#330000
1"
0#
13
01
14
02
1'
0:
18
18!
19
1K
0I
1L
0J
1M
#335000
1#
11
12
0'
#340000
0#
01
02
1'
08!
17!
0K
1I
0N
0L
1N
1L
1J
1O
0M
0O
1M
1P
0P
#345000
1#
11
12
0'
#350000
0#
01
02
1'
18!
1K
0I
0N
0L
0J
1O
0M
1P
#355000
1#
11
12
0'
#360000
0"
0#
03
01
04
02
1'
08!
07!
16!
0K
1I
1N
1L
1Q
0O
0L
1J
0Q
1O
1M
1R
0P
0M
0R
1P
1S
0S
#365000
1#
11
12
0'
#370000
0#
01
02
1'
18!
1K
0I
1L
0J
1M
#375000
1#
11
12
0'
#380000
0#
01
02
1'
08!
17!
0K
1I
0N
0L
1N
1L
1J
1Q
0O
0M
0Q
1O
1M
1R
0P
0R
1P
1S
0S
#385000
1#
11
12
0'
#390000
1"
0#
13
01
14
02
1'
1:
18!
1?
1;
1K
0I
0B
1@
0N
0L
0J
1Q
0O
0M
1R
0P
0}
1S
#395000
1#
11
12
0'
0C
1A
0>
0;
0@
#400000
0#
01
02
1'
08!
07!
06!
15!
0K
1I
1N
1L
0Q
1O
0T
0R
0L
1}
1J
0O
1M
1T
1R
1P
1W
0U
0S
0M
0P
0W
1U
1S
1X
0V
0X
1V
1Y
0Y
#405000
1#
11
12
0'
#410000
0#
01
02
1'
18!
1K
0I
1L
0}
0J
1}
1M
#415000
1#
11
12
0'
#420000
0"
0#
03
01
04
02
1'
08!
17!
0K
1I
0N
0L
1N
1L
1J
1O
0M
0O
1M
1P
0P
#425000
1#
11
12
0'
#430000
0!
0#
05
01
02
1'
18!
1K
0I
0N
0L
0J
1O
0}
0M
1}
1P
#435000
1#
11
12
0'
#440000
0#
01
02
1'
08!
07!
16!
0K
1I
1N
1L
1Q
0O
0L
1J
0Q
1O
1M
0T
0R
0P
0M
1T
1R
1P
1W
0U
0S
0W
1U
1S
1X
0V
0X
1V
1Y
0Y
#445000
1#
11
12
0'
#450000
1"
0#
13
01
14
02
1'
06
18!
0?
0<
07
1K
0I
1@
1L
0J
1M
#455000
1#
11
12
0'
0A
0=
0@
1<
1>
1F
1/
1.
1$
1&
#460000
0#
01
02
1'
08!
17!
0K
1I
0N
0L
1N
1L
1J
1Q
0O
0M
0Q
1O
1M
0T
0R
0P
1T
1R
1P
1W
0U
0S
0W
1U
1S
1X
0V
0X
1V
1Y
0Y
#465000
1#
11
12
0'
#470000
0#
01
02
1'
18!
1K
0I
0N
0L
0J
1Q
0O
0M
0T
0R
0}
0P
1W
0U
1}
0S
1X
0V
1Y
#475000
1#
11
12
0'
#480000
0"
0#
03
01
04
02
1'
08!
07!
06!
05!
04!
13!
0K
1I
1N
1L
0Q
1O
1T
1R
0W
1U
0Z
0X
0L
1J
0O
1M
0R
1P
0U
1S
1Z
1X
1V
1[
0Y
0M
0P
0S
0V
0[
1Y
1\
0\
#485000
1#
11
12
0'
#490000
0#
01
02
1'
18!
1K
0I
1L
0J
1M
#495000
1#
11
12
0'
#500000
1!
0#
15
01
02
1'
08!
17!
0K
1I
0N
0L
1N
1L
1J
1O
0M
0O
1M
1P
0P
#505000
1#
11
12
0'
#510000
1"
0#
13
01
14
02
1'
08
16
18!
09
17
1K
0I
0N
0L
0J
1O
0M
1P
#515000
1#
11
12
0'
#520000
0#
01
02
1'
08!
07!
16!
0K
1I
1N
1L
1Q
0O
0L
1J
0Q
1O
1M
1R
0P
0M
0R
1P
1S
0S
#525000
1#
11
12
0'
#530000
0#
01
02
1'
18!
1K
0I
1L
0J
1M
#535000
1#
11
12
0'
#540000
0"
0#
03
01
04
02
1'
08!
17!
0K
1I
0N
0L
1N
1L
1J
1Q
0O
0M
0Q
1O
1M
1R
0P
0R
1P
1S
0S
#545000
1#
11
12
0'
#550000
0#
01
02
1'
18!
1K
0I
0N
0L
0J
1Q
0O
0M
1R
0P
0}
1S
#555000
1#
11
12
0'
#560000
0#
01
02
1'
08!
07!
06!
15!
0K
1I
1N
1L
0Q
1O
0T
0R
0L
1}
1J
0O
1M
1T
1R
1P
1U
0S
0M
0P
0U
1S
1V
0V
#565000
1#
11
12
0'
#570000
1"
0#
13
01
14
02
1'
0:
18
18!
19
1K
0I
1L
0}
0J
1}
1M
#575000
1#
11
12
0'
#580000
0#
01
02
1'
08!
17!
0K
1I
0N
0L
1N
1L
1J
1O
0M
0O
1M
1P
0P
#585000
1#
11
12
0'
#590000
0#
01
02
1'
18!
1K
0I
0N
0L
0J
1O
0}
0M
1}
1P
#595000
1#
11
12
0'
#600000
0"
0#
03
01
04
02
1'
08!
07!
16!
0K
1I
1N
1L
1Q
0O
0L
1J
0Q
1O
1M
0T
0R
0P
0M
1T
1R
1P
1U
0S
0U
1S
1V
0V
#605000
1#
11
12
0'
#610000
0#
01
02
1'
18!
1K
0I
1L
0J
1M
#615000
1#
11
12
0'
#620000
0#
01
02
1'
08!
17!
0K
1I
0N
0L
1N
1L
1J
1Q
0O
0M
0Q
1O
1M
0T
0R
0P
1T
1R
1P
1U
0S
0U
1S
1V
0V
#625000
1#
11
12
0'
#630000
1"
0#
13
01
14
02
1'
1:
18!
1?
1K
0I
1D
1@
0N
0L
0J
1Q
0O
0M
0T
0R
0}
0P
1U
1}
0S
1V
#635000
1#
11
12
0'
1E
1=
0>
0@
#640000
0#
01
02
1'
08!
07!
06!
05!
14!
0K
1I
1N
1L
0Q
1O
1T
1R
1W
0U
0L
1J
0O
1M
0R
1P
0W
1U
1S
0Z
0X
0V
0M
0P
0S
1Z
1X
1V
1[
0Y
0[
1Y
1\
0\
#645000
1#
11
12
0'
#650000
0!
0#
05
01
02
1'
18!
1K
0I
1L
0J
1M
#655000
1#
11
12
0'
#660000
0"
0#
03
01
04
02
1'
08!
17!
0K
1I
0N
0L
1N
1L
1J
1O
0M
0O
1M
1P
0P
#665000
1#
11
12
0'
#670000
0#
01
02
1'
18!
1K
0I
0N
0L
0J
1O
0M
1P
#675000
1#
11
12
0'
#680000
0#
01
02
1'
08!
07!
16!
0K
1I
1N
1L
1Q
0O
0L
1J
0Q
1O
1M
1R
0P
0M
0R
1P
1S
0S
#685000
1#
11
12
0'
#690000
1"
0#
13
01
14
02
1'
06
18!
0?
07
1K
0I
0D
1B
1@
1L
0J
1M
#695000
1#
11
12
0'
0E
1C
0@
1>
0F
0/
0.
0$
0&
#700000
0#
01
02
1'
08!
17!
0K
1I
0N
0L
1N
1L
1J
1Q
0O
0M
0Q
1O
1M
1R
0P
0R
1P
1S
0S
#705000
1#
11
12
0'
#710000
0#
01
02
1'
18!
1K
0I
0N
0L
0J
1Q
0O
0M
1R
0P
0}
1S
#715000
1#
11
12
0'
#720000
0"
0#
03
01
04
02
1'
08!
07!
06!
15!
0K
1I
1N
1L
0Q
1O
0T
0R
0L
1}
1J
0O
1M
1T
1R
1P
1W
0U
0S
0M
0P
0W
1U
1S
0Z
0X
0V
1Z
1X
1V
1[
0Y
0[
1Y
1\
0\
#725000
1#
11
12
0'
#730000
0#
01
02
1'
18!
1K
0I
1L
0}
0J
1}
1M
#735000
1#
11
12
0'
#740000
1!
0#
15
01
02
1'
08!
17!
0K
1I
0N
0L
1N
1L
1J
1O
0M
0O
1M
1P
0P
#745000
1#
11
12
0'
#750000
1"
0#
13
01
14
02
1'
08
16
18!
09
17
1K
0I
0N
0L
0J
1O
0}
0M
1}
1P
#755000
1#
11
12
0'
#760000
0#
01
02
1'
08!
07!
16!
0K
1I
1N
1L
1Q
0O
0L
1J
0Q
1O
1M
0T
0R
0P
0M
1T
1R
1P
1W
0U
0S
0W
1U
1S
0Z
0X
0V
1Z
1X
1V
1[
0Y
0[
1Y
1\
0\
#765000
1#
11
12
0'
#770000
0#
01
02
1'
18!
1K
0I
1L
0J
1M
#775000
1#
11
12
0'
#780000
0"
0#
03
01
04
02
1'
08!
17!
0K
1I
0N
0L
1N
1L
1J
1Q
0O
0M
0Q
1O
1M
0T
0R
0P
1T
1R
1P
1W
0U
0S
0W
1U
1S
0Z
0X
0V
1Z
1X
1V
1[
0Y
0[
1Y
1\
0\
#785000
1#
11
12
0'
#790000
0#
01
02
1'
18!
1K
0I
0N
0L
0J
1Q
0O
0M
0T
0R
0}
0P
1W
0U
1}
0S
0Z
0X
0V
1[
0Y
1\
#795000
1#
11
12
0'
#800000
0#
01
02
1'
08!
07!
06!
05!
04!
03!
12!
0K
1I
1N
1L
0Q
1O
1T
1R
0W
1U
1Z
1X
1]
0[
0L
1J
0O
1M
0R
1P
0U
1S
0X
1V
0]
1[
1Y
1^
0\
0M
0P
0S
0V
0Y
0^
1\
1_
0_
#805000
1#
11
12
0'
#810000
1"
0#
13
01
14
02
1'
0:
18
18!
19
1K
0I
1L
0J
1M
#815000
1#
11
12
0'
#820000
0#
01
02
1'
08!
17!
0K
1I
0N
0L
1N
1L
1J
1O
0M
0O
1M
1P
0P
#825000
1#
11
12
0'
#830000
0#
01
02
1'
18!
1K
0I
0N
0L
0J
1O
0M
1P
#835000
1#
11
12
0'
#840000
0"
0#
03
01
04
02
1'
08!
07!
16!
0K
1I
1N
1L
1Q
0O
0L
1J
0Q
1O
1M
1R
0P
0M
0R
1P
1S
0S
#845000
1#
11
12
0'
#850000
0#
01
02
1'
18!
1K
0I
1L
0J
1M
#855000
1#
11
12
0'
#860000
0#
01
02
1'
08!
17!
0K
1I
0N
0L
1N
1L
1J
1Q
0O
0M
0Q
1O
1M
1R
0P
0R
1P
1S
0S
#865000
1#
11
12
0'
#870000
1"
0#
13
01
14
02
1'
1:
18!
1?
1;
1K
0I
0B
1@
0N
0L
0J
1Q
0O
0M
1R
0P
0}
1S
#875000
1#
11
12
0'
0C
1A
0>
0;
0@
#880000
0#
01
02
1'
08!
07!
06!
15!
0K
1I
1N
1L
0Q
1O
0T
0R
0L
1}
1J
0O
1M
1T
1R
1P
1U
0S
0M
0P
0U
1S
1V
0V
#885000
1#
11
12
0'
#890000
0#
01
02
1'
18!
1K
0I
1L
0}
0J
1}
1M
#895000
1#
11
12
0'
#900000
0"
0#
03
01
04
02
1'
08!
17!
0K
1I
0N
0L
1N
1L
1J
1O
0M
0O
1M
1P
0P
#905000
1#
11
12
0'
#910000
0!
0#
05
01
02
1'
18!
1K
0I
0N
0L
0J
1O
0}
0M
1}
1P
#915000
1#
11
12
0'
#920000
0#
01
02
1'
08!
07!
16!
0K
1I
1N
1L
1Q
0O
0L
1J
0Q
1O
1M
0T
0R
0P
0M
1T
1R
1P
1U
0S
0U
1S
1V
0V
#925000
1#
11
12
0'
#930000
1"
0#
13
01
14
02
1'
06
18!
0?
0<
07
1K
0I
1@
1L
0J
1M
#935000
1#
11
12
0'
0A
0=
0@
1<
1>
1F
1/
1.
1$
1&
#940000
0#
01
02
1'
08!
17!
0K
1I
0N
0L
1N
1L
1J
1Q
0O
0M
0Q
1O
1M
0T
0R
0P
1T
1R
1P
1U
0S
0U
1S
1V
0V
#945000
1#
11
12
0'
#950000
0#
01
02
1'
18!
1K
0I
0N
0L
0J
1Q
0O
0M
0T
0R
0}
0P
1U
1}
0S
1V
#955000
1#
11
12
0'
#960000
0"
0#
03
01
04
02
1'
08!
07!
06!
05!
14!
0K
1I
1N
1L
0Q
1O
1T
1R
1W
0U
0L
1J
0O
1M
0R
1P
0W
1U
1S
1X
0V
0M
0P
0S
0X
1V
1Y
0Y
#965000
1#
11
12
0'
#970000
0#
01
02
1'
18!
1K
0I
1L
0J
1M
#975000
1#
11
12
0'
#980000
0#
01
02
1'
08!
17!
0K
1I
0N
0L
1N
1L
1J
1O
0M
0O
1M
1P
0P
#985000
1#
11
12
0'
#990000
1"
0#
13
01
14
02
1'
08
18!
09
1K
0I
0N
0L
0J
1O
0M
1P
#995000
1#
11
12
0'
