1.4_ligadesliga/simulation/qsim/ligadesliga.msim.vcd
$comment
	File created using the following command:
		vcd file ligadesliga.msim.vcd -direction
$end
$date
	Sat Apr 07 22:08:26 2018
$end
$version
	ModelSim Version 10.1d
$end
$timescale
	1ps
$end
$scope module ligadesliga_vlg_vec_tst $end
$var reg 1 ! botao $end
$var reg 1 " clock $end
$var wire 1 # off $end
$var wire 1 $ rst $end
$var wire 1 % Standby $end
$var wire 1 & sampler $end
$scope module i1 $end
$var wire 1 ' gnd $end
$var wire 1 ( vcc $end
$var wire 1 ) unknown $end
$var tri1 1 * devclrn $end
$var tri1 1 + devpor $end
$var tri1 1 , devoe $end
$var wire 1 - Standby~output_o $end
$var wire 1 . off~output_o $end
$var wire 1 / rst~output_o $end
$var wire 1 0 clock~input_o $end
$var wire 1 1 clock~inputclkctrl_outclk $end
$var wire 1 2 botao~input_o $end
$var wire 1 3 Selector1~0_combout $end
$var wire 1 4 est.reset~q $end
$var wire 1 5 Selector2~0_combout $end
$var wire 1 6 est.ligado~q $end
$var wire 1 7 Selector1~1_combout $end
$var wire 1 8 Selector0~1_combout $end
$var wire 1 9 Selector0~2_combout $end
$var wire 1 : est.espera~q $end
$var wire 1 ; Selector0~0_combout $end
$var wire 1 < est.desligado~q $end
$var wire 1 = Standby~0_combout $end
$upscope $end
$upscope $end
$enddefinitions $end
#0
$dumpvars
0!
0"
1#
0$
1%
x&
0'
1(
x)
1*
1+
1,
1-
1.
0/
00
01
02
03
04
05
06
07
08
09
0:
1;
0<
1=
$end
#10000
1"
10
11
0&
#20000
0"
00
01
1&
#30000
1"
10
11
0&
#40000
0"
00
01
1&
#50000
1"
10
11
0&
#60000
0"
00
01
1&
#70000
1!
1"
12
10
11
0&
19
13
#80000
0"
00
01
1&
#90000
1"
10
11
0&
1<
14
09
1/
1$
#100000
0"
00
01
1&
#110000
0!
1"
02
10
11
0&
18
15
03
19
#120000
0"
00
01
1&
#130000
1"
10
11
0&
16
04
08
0/
0$
0=
09
0.
0-
0#
0%
#140000
0"
00
01
1&
#150000
1!
1"
12
10
11
0&
19
17
05
#160000
0"
00
01
1&
#170000
1"
10
11
0&
1:
06
09
07
#180000
0"
00
01
1&
#190000
1"
10
11
0&
#200000
0!
0"
02
00
01
1&
0;
18
19
#210000
1"
10
11
0&
0<
0:
1;
08
1=
09
1.
1-
1#
1%
#220000
0"
00
01
1&
#230000
1!
1"
12
10
11
0&
19
13
#240000
0"
00
01
1&
#250000
1"
10
11
0&
1<
14
09
1/
1$
#260000
0"
00
01
1&
#270000
1"
10
11
0&
#280000
0"
00
01
1&
#290000
0!
1"
02
10
11
0&
18
15
03
19
#300000
0"
00
01
1&
#310000
1"
10
11
0&
16
04
08
0/
0$
0=
09
0.
0-
0#
0%
#320000
0"
00
01
1&
#330000
1!
1"
12
10
11
0&
19
17
05
#340000
0"
00
01
1&
#350000
1"
10
11
0&
1:
06
09
07
#360000
0"
00
01
1&
#370000
1"
10
11
0&
#380000
0"
00
01
1&
#390000
0!
1"
02
10
11
0&
0;
18
19
#400000
0"
00
01
1&
#410000
1"
10
11
0&
0<
0:
1;
08
1=
09
1.
1-
1#
1%
#420000
0"
00
01
1&
#430000
1"
10
11
0&
#440000
1!
0"
12
00
01
1&
19
13
#450000
1"
10
11
0&
1<
14
09
1/
1$
#460000
0"
00
01
1&
#470000
1"
10
11
0&
#480000
0"
00
01
1&
#490000
1"
10
11
0&
#500000
0"
00
01
1&
#510000
0!
1"
02
10
11
0&
18
15
03
19
#520000
1!
0"
12
00
01
1&
08
05
13
09
#530000
1"
10
11
0&
#540000
0!
0"
02
00
01
1&
18
15
03
19
#550000
1"
10
11
0&
16
04
08
0/
0$
0=
09
0.
0-
0#
0%
#560000
0"
00
01
1&
#570000
1"
10
11
0&
#580000
0"
00
01
1&
#590000
1"
10
11
0&
#600000
0"
00
01
1&
#610000
1"
10
11
0&
#620000
0"
00
01
1&
#630000
1!
1"
12
10
11
0&
19
17
05
#640000
0"
00
01
1&
#650000
0!
1"
02
10
11
0&
09
07
15
1:
06
0;
18
05
19
#660000
0"
00
01
1&
#670000
1"
10
11
0&
0<
0:
1;
08
1=
09
1.
1-
1#
1%
#680000
1!
0"
12
00
01
1&
19
13
#690000
1"
10
11
0&
1<
14
09
1/
1$
#700000
0"
00
01
1&
#710000
1"
10
11
0&
#720000
0"
00
01
1&
#730000
1"
10
11
0&
#740000
0"
00
01
1&
#750000
1"
10
11
0&
#760000
0!
0"
02
00
01
1&
18
15
03
19
#770000
1"
10
11
0&
16
04
08
0/
0$
0=
09
0.
0-
0#
0%
#780000
0"
00
01
1&
#790000
1"
10
11
0&
#800000
0"
00
01
1&
#810000
1"
10
11
0&
#820000
0"
00
01
1&
#830000
1"
10
11
0&
#840000
0"
00
01
1&
#850000
1"
10
11
0&
#860000
0"
00
01
1&
#870000
1"
10
11
0&
#880000
0"
00
01
1&
#890000
1"
10
11
0&
#900000
0"
00
01
1&
#910000
1"
10
11
0&
#920000
0"
00
01
1&
#930000
1"
10
11
0&
#940000
1!
0"
12
00
01
1&
19
17
05
#950000
1"
10
11
0&
1:
06
09
07
#960000
0"
00
01
1&
#970000
1"
10
11
0&
#980000
0"
00
01
1&
#990000
1"
10
11
0&
