1.2_temporizador/simulation/qsim/contador_temp.msim.vcd
$comment
	File created using the following command:
		vcd file contador_temp.msim.vcd -direction
$end
$date
	Tue Apr 10 23:30:29 2018
$end
$version
	ModelSim Version 10.1d
$end
$timescale
	1ps
$end
$scope module contador_temp_vlg_vec_tst $end
$var reg 1 ! cin $end
$var reg 1 " clock_1hz $end
$var reg 4 # dtRl0 [3:0] $end
$var reg 1 $ enTE $end
$var reg 1 % rst $end
$var reg 1 & wrTE $end
$var wire 1 ' cout $end
$var wire 1 ( q [3] $end
$var wire 1 ) q [2] $end
$var wire 1 * q [1] $end
$var wire 1 + q [0] $end
$var wire 1 , sampler $end
$scope module i1 $end
$var wire 1 - gnd $end
$var wire 1 . vcc $end
$var wire 1 / unknown $end
$var tri1 1 0 devclrn $end
$var tri1 1 1 devpor $end
$var tri1 1 2 devoe $end
$var wire 1 3 cout~output_o $end
$var wire 1 4 q[3]~output_o $end
$var wire 1 5 q[2]~output_o $end
$var wire 1 6 q[1]~output_o $end
$var wire 1 7 q[0]~output_o $end
$var wire 1 8 clock_1hz~input_o $end
$var wire 1 9 clock_1hz~inputclkctrl_outclk $end
$var wire 1 : cin~input_o $end
$var wire 1 ; inst|LPM_COUNTER_component|auto_generated|counter_comb_bita0~1_cout $end
$var wire 1 < inst|LPM_COUNTER_component|auto_generated|counter_comb_bita0~combout $end
$var wire 1 = dtRl0[0]~input_o $end
$var wire 1 > wrTE~input_o $end
$var wire 1 ? rst~input_o $end
$var wire 1 @ inst|LPM_COUNTER_component|auto_generated|counter_reg_bit[0]~4_combout $end
$var wire 1 A inst|LPM_COUNTER_component|auto_generated|counter_reg_bit[3]~1_combout $end
$var wire 1 B enTE~input_o $end
$var wire 1 C inst|LPM_COUNTER_component|auto_generated|_~0_combout $end
$var wire 1 D inst|LPM_COUNTER_component|auto_generated|counter_comb_bita0~COUT $end
$var wire 1 E inst|LPM_COUNTER_component|auto_generated|counter_comb_bita1~combout $end
$var wire 1 F dtRl0[1]~input_o $end
$var wire 1 G inst|LPM_COUNTER_component|auto_generated|counter_reg_bit[1]~3_combout $end
$var wire 1 H inst|LPM_COUNTER_component|auto_generated|counter_comb_bita1~COUT $end
$var wire 1 I inst|LPM_COUNTER_component|auto_generated|counter_comb_bita2~combout $end
$var wire 1 J dtRl0[2]~input_o $end
$var wire 1 K inst|LPM_COUNTER_component|auto_generated|counter_reg_bit[2]~2_combout $end
$var wire 1 L inst|LPM_COUNTER_component|auto_generated|counter_comb_bita2~COUT $end
$var wire 1 M inst|LPM_COUNTER_component|auto_generated|counter_comb_bita3~combout $end
$var wire 1 N dtRl0[3]~input_o $end
$var wire 1 O inst|LPM_COUNTER_component|auto_generated|counter_reg_bit[3]~0_combout $end
$var wire 1 P inst|LPM_COUNTER_component|auto_generated|counter_comb_bita3~COUT $end
$var wire 1 Q inst|LPM_COUNTER_component|auto_generated|counter_comb_bita3~0_combout $end
$var wire 1 R inst|LPM_COUNTER_component|auto_generated|counter_reg_bit [3] $end
$var wire 1 S inst|LPM_COUNTER_component|auto_generated|counter_reg_bit [2] $end
$var wire 1 T inst|LPM_COUNTER_component|auto_generated|counter_reg_bit [1] $end
$var wire 1 U inst|LPM_COUNTER_component|auto_generated|counter_reg_bit [0] $end
$upscope $end
$upscope $end
$enddefinitions $end
#0
$dumpvars
1!
0"
b101 #
0$
0%
0&
1'
0+
0*
0)
0(
x,
0-
1.
x/
10
11
12
13
04
05
06
07
08
09
1:
1;
1<
1=
0>
0?
1@
1A
0B
0C
0D
1E
0F
0G
1H
1I
1J
0K
0L
1M
0N
1O
1P
1Q
0U
0T
0S
0R
$end
#10000
1"
18
19
0,
#20000
0"
08
09
1,
#30000
1"
18
19
0,
#40000
0"
08
09
1,
#50000
1"
18
19
0,
#60000
0"
08
09
1,
#70000
1"
18
19
0,
#80000
0"
08
09
1,
#90000
1"
18
19
0,
#100000
0"
08
09
1,
#110000
1"
18
19
0,
#120000
0"
08
09
1,
#130000
1"
18
19
0,
#140000
1$
0"
1B
08
09
1,
1C
#150000
1"
18
19
0,
1R
1U
0P
0M
1D
0<
14
17
1(
1+
0H
0E
0Q
1L
0I
0A
03
0'
1M
#160000
0"
08
09
1,
#170000
1"
18
19
0,
0U
0D
1<
07
0+
1H
1E
0L
1I
0M
#180000
0"
08
09
1,
#190000
1"
18
19
0,
0R
1S
1T
1U
1P
1M
1L
0I
0H
0E
1D
0<
04
15
16
17
0(
1)
1*
1+
0P
0M
1I
1E
1Q
1A
13
1'
0Q
0A
03
0'
#200000
0"
08
09
1,
#210000
1"
18
19
0,
0U
0D
1<
07
0+
0E
#220000
0"
08
09
1,
#230000
1"
18
19
0,
0T
1U
1H
1E
1D
0<
06
17
0*
1+
0I
0H
0E
1I
#240000
0"
08
09
1,
#250000
1"
18
19
0,
0U
0D
1<
07
0+
1H
1E
0I
#260000
0"
08
09
1,
#270000
1"
18
19
0,
0S
1T
1U
0L
1I
0H
0E
1D
0<
05
16
17
0)
1*
1+
1P
1M
1L
0I
1E
0P
0M
1Q
1A
13
1'
0Q
0A
03
0'
#280000
0"
08
09
1,
#290000
1"
18
19
0,
0U
0D
1<
07
0+
0E
#300000
0"
08
09
1,
#310000
1"
18
19
0,
0T
1U
1H
1E
1D
0<
06
17
0*
1+
0L
1I
0H
0E
1P
1M
1L
0I
0P
0M
1Q
1A
13
1'
0Q
0A
03
0'
#320000
0"
08
09
1,
#330000
1"
18
19
0,
0U
0D
1<
07
0+
1H
1E
0L
1I
1P
1M
1Q
1A
13
1'
#340000
0"
08
09
1,
#350000
1"
18
19
0,
1R
1U
0P
0M
1D
0<
14
17
1(
1+
0H
0E
0Q
1L
0I
0A
03
0'
1M
#360000
0"
08
09
1,
#370000
1"
18
19
0,
0U
0D
1<
07
0+
1H
1E
0L
1I
0M
#380000
0"
08
09
1,
#390000
1"
18
19
0,
0R
1S
1T
1U
1P
1M
1L
0I
0H
0E
1D
0<
04
15
16
17
0(
1)
1*
1+
0P
0M
1I
1E
1Q
1A
13
1'
0Q
0A
03
0'
#400000
0"
08
09
1,
#410000
1%
1"
1?
18
19
0,
0O
1A
0@
0U
0D
1<
07
0+
0E
#420000
0"
08
09
1,
#430000
0%
1"
0?
18
19
0,
1O
0A
1@
0S
0T
0I
1H
1E
05
06
0)
0*
0L
1I
1P
1M
1Q
1A
13
1'
#440000
0"
08
09
1,
#450000
1"
18
19
0,
1R
1U
0P
0M
1D
0<
14
17
1(
1+
0H
0E
0Q
1L
0I
0A
03
0'
1M
#460000
0"
08
09
1,
#470000
1"
18
19
0,
0U
0D
1<
07
0+
1H
1E
0L
1I
0M
#480000
0"
08
09
1,
#490000
1"
18
19
0,
0R
1S
1T
1U
1P
1M
1L
0I
0H
0E
1D
0<
04
15
16
17
0(
1)
1*
1+
0P
0M
1I
1E
1Q
1A
13
1'
0Q
0A
03
0'
#500000
0"
08
09
1,
#510000
1"
18
19
0,
0U
0D
1<
07
0+
0E
#520000
0"
08
09
1,
#530000
1"
18
19
0,
0T
1U
1H
1E
1D
0<
06
17
0*
1+
0I
0H
0E
1I
#540000
0"
08
09
1,
#550000
1"
18
19
0,
0U
0D
1<
07
0+
1H
1E
0I
#560000
0"
08
09
1,
#570000
1&
1"
1>
18
19
0,
0O
1K
1A
0S
1T
1U
0L
1I
0H
0E
1D
0<
05
16
17
0)
1*
1+
1P
1M
1L
0I
1E
0P
0M
1Q
13
1'
0Q
03
0'
#580000
0"
08
09
1,
#590000
1"
18
19
0,
1S
0T
1I
0E
15
06
1)
0*
#600000
0&
0"
0>
08
09
1,
1O
0K
0A
#610000
1"
18
19
0,
0U
0D
1<
07
0+
1H
1E
0I
#620000
0"
08
09
1,
#630000
1"
18
19
0,
0S
1T
1U
0L
1I
0H
0E
1D
0<
05
16
17
0)
1*
1+
1P
1M
1L
0I
1E
0P
0M
1Q
1A
13
1'
0Q
0A
03
0'
#640000
0"
08
09
1,
#650000
1"
18
19
0,
0U
0D
1<
07
0+
0E
#660000
0"
08
09
1,
#670000
1"
18
19
0,
0T
1U
1H
1E
1D
0<
06
17
0*
1+
0L
1I
0H
0E
1P
1M
1L
0I
0P
0M
1Q
1A
13
1'
0Q
0A
03
0'
#680000
0"
08
09
1,
#690000
1"
18
19
0,
0U
0D
1<
07
0+
1H
1E
0L
1I
1P
1M
1Q
1A
13
1'
#700000
0"
08
09
1,
#710000
1"
18
19
0,
1R
1U
0P
0M
1D
0<
14
17
1(
1+
0H
0E
0Q
1L
0I
0A
03
0'
1M
#720000
0"
08
09
1,
#730000
1"
18
19
0,
0U
0D
1<
07
0+
1H
1E
0L
1I
0M
#740000
0"
08
09
1,
#750000
1"
18
19
0,
0R
1S
1T
1U
1P
1M
1L
0I
0H
0E
1D
0<
04
15
16
17
0(
1)
1*
1+
0P
0M
1I
1E
1Q
1A
13
1'
0Q
0A
03
0'
#760000
0"
08
09
1,
#770000
1"
18
19
0,
0U
0D
1<
07
0+
0E
#780000
0"
08
09
1,
#790000
1"
18
19
0,
0T
1U
1H
1E
1D
0<
06
17
0*
1+
0I
0H
0E
1I
#800000
0$
0"
0B
08
09
1,
0C
#810000
1"
18
19
0,
#820000
0"
08
09
1,
#830000
1"
18
19
0,
#840000
0"
08
09
1,
#850000
1"
18
19
0,
#860000
0"
08
09
1,
#870000
1"
18
19
0,
#880000
0"
08
09
1,
#890000
1"
18
19
0,
#900000
0"
08
09
1,
#910000
1"
18
19
0,
#920000
0"
08
09
1,
#930000
1"
18
19
0,
#940000
0"
08
09
1,
#950000
1"
18
19
0,
#960000
0"
08
09
1,
#970000
1"
18
19
0,
#980000
0"
08
09
1,
#990000
1"
18
19
0,
