1.2_temporizador/simulation/qsim/historia2.msim.vcd
$comment
	File created using the following command:
		vcd file historia2.msim.vcd -direction
$end
$date
	Wed Apr 11 13:45:20 2018
$end
$version
	ModelSim Version 10.1d
$end
$timescale
	1ps
$end
$scope module historia2_vlg_vec_tst $end
$var reg 1 ! cin $end
$var reg 1 " clk_1hz $end
$var reg 4 # dtRL1 [3:0] $end
$var reg 4 $ dtRL2 [3:0] $end
$var reg 1 % enTE $end
$var reg 1 & rst $end
$var reg 1 ' wrTE $end
$var wire 1 ( dtTE1 [3] $end
$var wire 1 ) dtTE1 [2] $end
$var wire 1 * dtTE1 [1] $end
$var wire 1 + dtTE1 [0] $end
$var wire 1 , dtTE2 [3] $end
$var wire 1 - dtTE2 [2] $end
$var wire 1 . dtTE2 [1] $end
$var wire 1 / dtTE2 [0] $end
$var wire 1 0 endTE $end
$var wire 1 1 onTE $end
$var wire 1 2 sampler $end
$scope module i1 $end
$var wire 1 3 gnd $end
$var wire 1 4 vcc $end
$var wire 1 5 unknown $end
$var tri1 1 6 devclrn $end
$var tri1 1 7 devpor $end
$var tri1 1 8 devoe $end
$var wire 1 9 onTE~output_o $end
$var wire 1 : endTE~output_o $end
$var wire 1 ; dtTE1[3]~output_o $end
$var wire 1 < dtTE1[2]~output_o $end
$var wire 1 = dtTE1[1]~output_o $end
$var wire 1 > dtTE1[0]~output_o $end
$var wire 1 ? dtTE2[3]~output_o $end
$var wire 1 @ dtTE2[2]~output_o $end
$var wire 1 A dtTE2[1]~output_o $end
$var wire 1 B dtTE2[0]~output_o $end
$var wire 1 C clk_1hz~input_o $end
$var wire 1 D clk_1hz~inputclkctrl_outclk $end
$var wire 1 E cin~input_o $end
$var wire 1 F inst|LPM_COUNTER_component|auto_generated|counter_comb_bita0~1_cout $end
$var wire 1 G inst|LPM_COUNTER_component|auto_generated|counter_comb_bita0~combout $end
$var wire 1 H wrTE~input_o $end
$var wire 1 I rst~input_o $end
$var wire 1 J dtRL1[0]~input_o $end
$var wire 1 K inst|LPM_COUNTER_component|auto_generated|counter_reg_bit[0]~4_combout $end
$var wire 1 L inst|LPM_COUNTER_component|auto_generated|counter_reg_bit[3]~1_combout $end
$var wire 1 M enTE~input_o $end
$var wire 1 N inst2|LPM_COUNTER_component|auto_generated|_~0_combout $end
$var wire 1 O inst|LPM_COUNTER_component|auto_generated|counter_comb_bita0~COUT $end
$var wire 1 P inst|LPM_COUNTER_component|auto_generated|counter_comb_bita1~combout $end
$var wire 1 Q dtRL1[1]~input_o $end
$var wire 1 R inst|LPM_COUNTER_component|auto_generated|counter_reg_bit[1]~3_combout $end
$var wire 1 S inst|LPM_COUNTER_component|auto_generated|counter_comb_bita1~COUT $end
$var wire 1 T inst|LPM_COUNTER_component|auto_generated|counter_comb_bita2~combout $end
$var wire 1 U dtRL1[2]~input_o $end
$var wire 1 V inst|LPM_COUNTER_component|auto_generated|counter_reg_bit[2]~2_combout $end
$var wire 1 W inst|LPM_COUNTER_component|auto_generated|counter_comb_bita2~COUT $end
$var wire 1 X inst|LPM_COUNTER_component|auto_generated|counter_comb_bita3~combout $end
$var wire 1 Y dtRL1[3]~input_o $end
$var wire 1 Z inst|LPM_COUNTER_component|auto_generated|counter_reg_bit[3]~0_combout $end
$var wire 1 [ inst|LPM_COUNTER_component|auto_generated|counter_comb_bita3~COUT $end
$var wire 1 \ inst|LPM_COUNTER_component|auto_generated|counter_comb_bita3~0_combout $end
$var wire 1 ] inst2|LPM_COUNTER_component|auto_generated|counter_comb_bita0~1_cout $end
$var wire 1 ^ inst2|LPM_COUNTER_component|auto_generated|counter_comb_bita0~combout $end
$var wire 1 _ dtRL2[0]~input_o $end
$var wire 1 ` inst2|LPM_COUNTER_component|auto_generated|counter_reg_bit[0]~4_combout $end
$var wire 1 a inst2|LPM_COUNTER_component|auto_generated|counter_reg_bit[3]~1_combout $end
$var wire 1 b inst2|LPM_COUNTER_component|auto_generated|counter_comb_bita0~COUT $end
$var wire 1 c inst2|LPM_COUNTER_component|auto_generated|counter_comb_bita1~combout $end
$var wire 1 d dtRL2[1]~input_o $end
$var wire 1 e inst2|LPM_COUNTER_component|auto_generated|counter_reg_bit[1]~3_combout $end
$var wire 1 f inst2|LPM_COUNTER_component|auto_generated|counter_comb_bita1~COUT $end
$var wire 1 g inst2|LPM_COUNTER_component|auto_generated|counter_comb_bita2~combout $end
$var wire 1 h dtRL2[2]~input_o $end
$var wire 1 i inst2|LPM_COUNTER_component|auto_generated|counter_reg_bit[2]~2_combout $end
$var wire 1 j inst2|LPM_COUNTER_component|auto_generated|counter_comb_bita2~COUT $end
$var wire 1 k inst2|LPM_COUNTER_component|auto_generated|counter_comb_bita3~combout $end
$var wire 1 l dtRL2[3]~input_o $end
$var wire 1 m inst2|LPM_COUNTER_component|auto_generated|counter_reg_bit[3]~0_combout $end
$var wire 1 n inst2|LPM_COUNTER_component|auto_generated|counter_comb_bita3~COUT $end
$var wire 1 o inst2|LPM_COUNTER_component|auto_generated|counter_comb_bita3~0_combout $end
$var wire 1 p inst2|LPM_COUNTER_component|auto_generated|counter_reg_bit [3] $end
$var wire 1 q inst2|LPM_COUNTER_component|auto_generated|counter_reg_bit [2] $end
$var wire 1 r inst2|LPM_COUNTER_component|auto_generated|counter_reg_bit [1] $end
$var wire 1 s inst2|LPM_COUNTER_component|auto_generated|counter_reg_bit [0] $end
$var wire 1 t inst|LPM_COUNTER_component|auto_generated|counter_reg_bit [3] $end
$var wire 1 u inst|LPM_COUNTER_component|auto_generated|counter_reg_bit [2] $end
$var wire 1 v inst|LPM_COUNTER_component|auto_generated|counter_reg_bit [1] $end
$var wire 1 w inst|LPM_COUNTER_component|auto_generated|counter_reg_bit [0] $end
$upscope $end
$upscope $end
$enddefinitions $end
#0
$dumpvars
1!
0"
b0 #
b10 $
1%
0&
1'
0+
0*
0)
0(
0/
0.
0-
0,
10
01
x2
03
14
x5
16
17
18
09
1:
0;
0<
0=
0>
0?
0@
0A
0B
0C
0D
1E
1F
1G
1H
0I
0J
0K
1L
1M
1N
0O
1P
0Q
0R
1S
1T
0U
0V
0W
1X
0Y
0Z
1[
1\
1]
1^
0_
0`
1a
0b
1c
1d
1e
1f
1g
0h
0i
0j
1k
0l
0m
1n
1o
0s
0r
0q
0p
0w
0v
0u
0t
$end
#5000
1"
1C
1D
02
1r
0f
0c
1A
1.
1j
0g
0n
0k
0o
0:
19
00
11
#10000
0"
0C
0D
12
#15000
1"
1C
1D
02
#20000
0'
0"
0H
0C
0D
12
1m
0e
0a
1`
1Z
1K
#25000
1"
1C
1D
02
0r
1s
1t
1w
1f
1c
1b
0^
0[
0X
1O
0G
0A
1B
1;
1>
0.
1/
1(
1+
0j
1g
0f
0c
0\
0S
0P
1n
1k
1j
0g
0]
0L
1W
0T
0n
0k
1^
1X
1o
1a
1:
09
10
01
0o
0a
0:
19
00
11
#30000
0"
0C
0D
12
#35000
1"
1C
1D
02
0w
0O
1G
0>
0+
1S
1P
0W
1T
0X
#40000
0"
0C
0D
12
#45000
1"
1C
1D
02
0t
1u
1v
1w
1[
1X
1W
0T
0S
0P
1O
0G
0;
1<
1=
1>
0(
1)
1*
1+
1\
0[
0X
1T
1P
1]
1L
0\
0^
0]
0L
1^
#50000
0"
0C
0D
12
#55000
1"
1C
1D
02
0w
0O
1G
0>
0+
0P
#60000
0"
0C
0D
12
#65000
1"
1C
1D
02
0v
1w
1S
1P
1O
0G
0=
1>
0*
1+
0T
0S
0P
1T
#70000
0"
0C
0D
12
#75000
1"
1C
1D
02
0w
0O
1G
0>
0+
1S
1P
0T
#80000
0"
0C
0D
12
#85000
1"
1C
1D
02
0u
1v
1w
0W
1T
0S
0P
1O
0G
0<
1=
1>
0)
1*
1+
1[
1X
1W
0T
1P
1\
0[
0X
1]
1L
0\
0^
0]
0L
1^
#90000
0"
0C
0D
12
#95000
1"
1C
1D
02
0w
0O
1G
0>
0+
0P
#100000
0"
0C
0D
12
#105000
1"
1C
1D
02
0v
1w
1S
1P
1O
0G
0=
1>
0*
1+
0W
1T
0S
0P
1[
1X
1W
0T
1\
0[
0X
1]
1L
0\
0^
0]
0L
1^
#110000
0"
0C
0D
12
#115000
1"
1C
1D
02
0w
0O
1G
0>
0+
1S
1P
0W
1T
1[
1X
1\
1]
1L
0^
#120000
0"
0C
0D
12
#125000
1"
1C
1D
02
0s
1t
1w
0b
1^
0[
0X
1O
0G
0B
1;
1>
0/
1(
1+
1f
1c
0\
0S
0P
0j
1g
0]
0L
1W
0T
1n
1k
1b
0^
1X
0f
0c
1o
1j
0g
1a
1:
09
10
01
0n
0k
0o
0a
0:
19
00
11
#130000
0"
0C
0D
12
#135000
1"
1C
1D
02
0w
0O
1G
0>
0+
1S
1P
0W
1T
0X
#140000
0"
0C
0D
12
#145000
1"
1C
1D
02
0t
1u
1v
1w
1[
1X
1W
0T
0S
0P
1O
0G
0;
1<
1=
1>
0(
1)
1*
1+
1\
0[
0X
1T
1P
1]
1L
0\
0b
1^
0]
0L
1f
1c
1b
0^
0j
1g
0f
0c
1n
1k
1j
0g
0n
0k
1o
1a
1:
09
10
01
0o
0a
0:
19
00
11
#150000
0"
0C
0D
12
#155000
1"
1C
1D
02
0w
0O
1G
0>
0+
0P
#160000
0"
0C
0D
12
#165000
1"
1C
1D
02
0v
1w
1S
1P
1O
0G
0=
1>
0*
1+
0T
0S
0P
1T
#170000
0"
0C
0D
12
#175000
1"
1C
1D
02
0w
0O
1G
0>
0+
1S
1P
0T
#180000
0"
0C
0D
12
#185000
1"
1C
1D
02
0u
1v
1w
0W
1T
0S
0P
1O
0G
0<
1=
1>
0)
1*
1+
1[
1X
1W
0T
1P
1\
0[
0X
1]
1L
0\
0b
1^
0]
0L
1f
1c
1b
0^
0j
1g
0f
0c
1n
1k
1j
0g
0n
0k
1o
1a
1:
09
10
01
0o
0a
0:
19
00
11
#190000
0"
0C
0D
12
#195000
1"
1C
1D
02
0w
0O
1G
0>
0+
0P
#200000
0"
0C
0D
12
#205000
1"
1C
1D
02
0v
1w
1S
1P
1O
0G
0=
1>
0*
1+
0W
1T
0S
0P
1[
1X
1W
0T
1\
0[
0X
1]
1L
0\
0b
1^
0]
0L
1f
1c
1b
0^
0j
1g
0f
0c
1n
1k
1j
0g
0n
0k
1o
1a
1:
09
10
01
0o
0a
0:
19
00
11
#210000
0"
0C
0D
12
#215000
1"
1C
1D
02
0w
0O
1G
0>
0+
1S
1P
0W
1T
1[
1X
1\
1]
1L
0b
1^
1f
1c
0j
1g
1n
1k
1o
1a
1:
09
10
01
#220000
0"
0C
0D
12
#225000
1"
1C
1D
02
1p
1s
1t
1w
0n
0k
1b
0^
0[
0X
1O
0G
1?
1B
1;
1>
1,
1/
1(
1+
0f
0c
0\
0S
0P
0o
1j
0g
0]
0L
1W
0T
0a
0:
19
00
11
1k
1^
1X
#230000
0"
0C
0D
12
#235000
1"
1C
1D
02
0w
0O
1G
0>
0+
1S
1P
0W
1T
0X
#240000
0"
0C
0D
12
#245000
1"
1C
1D
02
0t
1u
1v
1w
1[
1X
1W
0T
0S
0P
1O
0G
0;
1<
1=
1>
0(
1)
1*
1+
1\
0[
0X
1T
1P
1]
1L
0\
0^
0]
0L
1^
#250000
0"
0C
0D
12
#255000
1"
1C
1D
02
0w
0O
1G
0>
0+
0P
#260000
0"
0C
0D
12
#265000
1"
1C
1D
02
0v
1w
1S
1P
1O
0G
0=
1>
0*
1+
0T
0S
0P
1T
#270000
0"
0C
0D
12
#275000
1"
1C
1D
02
0w
0O
1G
0>
0+
1S
1P
0T
#280000
0"
0C
0D
12
#285000
1"
1C
1D
02
0u
1v
1w
0W
1T
0S
0P
1O
0G
0<
1=
1>
0)
1*
1+
1[
1X
1W
0T
1P
1\
0[
0X
1]
1L
0\
0^
0]
0L
1^
#290000
0"
0C
0D
12
#295000
1"
1C
1D
02
0w
0O
1G
0>
0+
0P
#300000
0"
0C
0D
12
#305000
1"
1C
1D
02
0v
1w
1S
1P
1O
0G
0=
1>
0*
1+
0W
1T
0S
0P
1[
1X
1W
0T
1\
0[
0X
1]
1L
0\
0^
0]
0L
1^
#310000
0"
0C
0D
12
#315000
1"
1C
1D
02
0w
0O
1G
0>
0+
1S
1P
0W
1T
1[
1X
1\
1]
1L
0^
#320000
0"
0C
0D
12
#325000
1"
1C
1D
02
0s
1t
1w
0b
1^
0[
0X
1O
0G
0B
1;
1>
0/
1(
1+
1f
1c
0\
0S
0P
0j
1g
0]
0L
1W
0T
0k
1b
0^
1X
0f
0c
1j
0g
1k
#330000
0"
0C
0D
12
#335000
1"
1C
1D
02
0w
0O
1G
0>
0+
1S
1P
0W
1T
0X
#340000
0"
0C
0D
12
#345000
1"
1C
1D
02
0t
1u
1v
1w
1[
1X
1W
0T
0S
0P
1O
0G
0;
1<
1=
1>
0(
1)
1*
1+
1\
0[
0X
1T
1P
1]
1L
0\
0b
1^
0]
0L
1f
1c
1b
0^
0j
1g
0f
0c
0k
1j
0g
1k
#350000
0"
0C
0D
12
#355000
1"
1C
1D
02
0w
0O
1G
0>
0+
0P
#360000
0"
0C
0D
12
#365000
1"
1C
1D
02
0v
1w
1S
1P
1O
0G
0=
1>
0*
1+
0T
0S
0P
1T
#370000
0"
0C
0D
12
#375000
1"
1C
1D
02
0w
0O
1G
0>
0+
1S
1P
0T
#380000
0"
0C
0D
12
#385000
1"
1C
1D
02
0u
1v
1w
0W
1T
0S
0P
1O
0G
0<
1=
1>
0)
1*
1+
1[
1X
1W
0T
1P
1\
0[
0X
1]
1L
0\
0b
1^
0]
0L
1f
1c
1b
0^
0j
1g
0f
0c
0k
1j
0g
1k
#390000
0"
0C
0D
12
#395000
1"
1C
1D
02
0w
0O
1G
0>
0+
0P
#400000
0"
0C
0D
12
#405000
1"
1C
1D
02
0v
1w
1S
1P
1O
0G
0=
1>
0*
1+
0W
1T
0S
0P
1[
1X
1W
0T
1\
0[
0X
1]
1L
0\
0b
1^
0]
0L
1f
1c
1b
0^
0j
1g
0f
0c
0k
1j
0g
1k
#410000
0"
0C
0D
12
#415000
1"
1C
1D
02
0w
0O
1G
0>
0+
1S
1P
0W
1T
1[
1X
1\
1]
1L
0b
1^
1f
1c
0j
1g
0k
#420000
0"
0C
0D
12
#425000
1"
1C
1D
02
0p
1q
1r
1s
1t
1w
1n
1k
1j
0g
0f
0c
1b
0^
0[
0X
1O
0G
0?
1@
1A
1B
1;
1>
0,
1-
1.
1/
1(
1+
0n
0k
1g
1c
0\
0S
0P
1o
0]
0L
1W
0T
1a
1:
09
10
01
0o
1^
1X
0a
0:
19
00
11
#430000
0"
0C
0D
12
#435000
1"
1C
1D
02
0w
0O
1G
0>
0+
1S
1P
0W
1T
0X
#440000
0"
0C
0D
12
#445000
1"
1C
1D
02
0t
1u
1v
1w
1[
1X
1W
0T
0S
0P
1O
0G
0;
1<
1=
1>
0(
1)
1*
1+
1\
0[
0X
1T
1P
1]
1L
0\
0^
0]
0L
1^
#450000
0"
0C
0D
12
#455000
1"
1C
1D
02
0w
0O
1G
0>
0+
0P
#460000
0"
0C
0D
12
#465000
1"
1C
1D
02
0v
1w
1S
1P
1O
0G
0=
1>
0*
1+
0T
0S
0P
1T
#470000
0"
0C
0D
12
#475000
1"
1C
1D
02
0w
0O
1G
0>
0+
1S
1P
0T
#480000
0"
0C
0D
12
#485000
1"
1C
1D
02
0u
1v
1w
0W
1T
0S
0P
1O
0G
0<
1=
1>
0)
1*
1+
1[
1X
1W
0T
1P
1\
0[
0X
1]
1L
0\
0^
0]
0L
1^
#490000
0"
0C
0D
12
#495000
1"
1C
1D
02
0w
0O
1G
0>
0+
0P
#500000
0"
0C
0D
12
#505000
1"
1C
1D
02
0v
1w
1S
1P
1O
0G
0=
1>
0*
1+
0W
1T
0S
0P
1[
1X
1W
0T
1\
0[
0X
1]
1L
0\
0^
0]
0L
1^
#510000
0"
0C
0D
12
#515000
1"
1C
1D
02
0w
0O
1G
0>
0+
1S
1P
0W
1T
1[
1X
1\
1]
1L
0^
#520000
0"
0C
0D
12
#525000
1"
1C
1D
02
0s
1t
1w
0b
1^
0[
0X
1O
0G
0B
1;
1>
0/
1(
1+
0c
0\
0S
0P
0]
0L
1W
0T
1b
0^
1X
1c
#530000
0"
0C
0D
12
#535000
1"
1C
1D
02
0w
0O
1G
0>
0+
1S
1P
0W
1T
0X
#540000
0"
0C
0D
12
#545000
1"
1C
1D
02
0t
1u
1v
1w
1[
1X
1W
0T
0S
0P
1O
0G
0;
1<
1=
1>
0(
1)
1*
1+
1\
0[
0X
1T
1P
1]
1L
0\
0b
1^
0]
0L
0c
1b
0^
1c
#550000
0"
0C
0D
12
#555000
1"
1C
1D
02
0w
0O
1G
0>
0+
0P
#560000
0"
0C
0D
12
#565000
1"
1C
1D
02
0v
1w
1S
1P
1O
0G
0=
1>
0*
1+
0T
0S
0P
1T
#570000
0"
0C
0D
12
#575000
1"
1C
1D
02
0w
0O
1G
0>
0+
1S
1P
0T
#580000
0"
0C
0D
12
#585000
1"
1C
1D
02
0u
1v
1w
0W
1T
0S
0P
1O
0G
0<
1=
1>
0)
1*
1+
1[
1X
1W
0T
1P
1\
0[
0X
1]
1L
0\
0b
1^
0]
0L
0c
1b
0^
1c
#590000
0"
0C
0D
12
#595000
1"
1C
1D
02
0w
0O
1G
0>
0+
0P
#600000
0"
0C
0D
12
#605000
1"
1C
1D
02
0v
1w
1S
1P
1O
0G
0=
1>
0*
1+
0W
1T
0S
0P
1[
1X
1W
0T
1\
0[
0X
1]
1L
0\
0b
1^
0]
0L
0c
1b
0^
1c
#610000
0"
0C
0D
12
#615000
1"
1C
1D
02
0w
0O
1G
0>
0+
1S
1P
0W
1T
1[
1X
1\
1]
1L
0b
1^
0c
#620000
0"
0C
0D
12
#625000
1"
1C
1D
02
0r
1s
1t
1w
1f
1c
1b
0^
0[
0X
1O
0G
0A
1B
1;
1>
0.
1/
1(
1+
0g
0f
0c
0\
0S
0P
1g
0]
0L
1W
0T
1^
1X
#630000
0"
0C
0D
12
#635000
1"
1C
1D
02
0w
0O
1G
0>
0+
1S
1P
0W
1T
0X
#640000
0"
0C
0D
12
#645000
1"
1C
1D
02
0t
1u
1v
1w
1[
1X
1W
0T
0S
0P
1O
0G
0;
1<
1=
1>
0(
1)
1*
1+
1\
0[
0X
1T
1P
1]
1L
0\
0^
0]
0L
1^
#650000
0"
0C
0D
12
#655000
1"
1C
1D
02
0w
0O
1G
0>
0+
0P
#660000
0"
0C
0D
12
#665000
1"
1C
1D
02
0v
1w
1S
1P
1O
0G
0=
1>
0*
1+
0T
0S
0P
1T
#670000
0"
0C
0D
12
#675000
1"
1C
1D
02
0w
0O
1G
0>
0+
1S
1P
0T
#680000
0"
0C
0D
12
#685000
1"
1C
1D
02
0u
1v
1w
0W
1T
0S
0P
1O
0G
0<
1=
1>
0)
1*
1+
1[
1X
1W
0T
1P
1\
0[
0X
1]
1L
0\
0^
0]
0L
1^
#690000
0"
0C
0D
12
#695000
1"
1C
1D
02
0w
0O
1G
0>
0+
0P
#700000
0"
0C
0D
12
#705000
1"
1C
1D
02
0v
1w
1S
1P
1O
0G
0=
1>
0*
1+
0W
1T
0S
0P
1[
1X
1W
0T
1\
0[
0X
1]
1L
0\
0^
0]
0L
1^
#710000
0"
0C
0D
12
#715000
1"
1C
1D
02
0w
0O
1G
0>
0+
1S
1P
0W
1T
1[
1X
1\
1]
1L
0^
#720000
0"
0C
0D
12
#725000
1"
1C
1D
02
0s
1t
1w
0b
1^
0[
0X
1O
0G
0B
1;
1>
0/
1(
1+
1f
1c
0\
0S
0P
0g
0]
0L
1W
0T
1b
0^
1X
0f
0c
1g
#730000
0"
0C
0D
12
#735000
1"
1C
1D
02
0w
0O
1G
0>
0+
1S
1P
0W
1T
0X
#740000
0"
0C
0D
12
#745000
1"
1C
1D
02
0t
1u
1v
1w
1[
1X
1W
0T
0S
0P
1O
0G
0;
1<
1=
1>
0(
1)
1*
1+
1\
0[
0X
1T
1P
1]
1L
0\
0b
1^
0]
0L
1f
1c
1b
0^
0g
0f
0c
1g
#750000
0"
0C
0D
12
#755000
1"
1C
1D
02
0w
0O
1G
0>
0+
0P
#760000
0"
0C
0D
12
#765000
1"
1C
1D
02
0v
1w
1S
1P
1O
0G
0=
1>
0*
1+
0T
0S
0P
1T
#770000
0"
0C
0D
12
#775000
1"
1C
1D
02
0w
0O
1G
0>
0+
1S
1P
0T
#780000
0"
0C
0D
12
#785000
1"
1C
1D
02
0u
1v
1w
0W
1T
0S
0P
1O
0G
0<
1=
1>
0)
1*
1+
1[
1X
1W
0T
1P
1\
0[
0X
1]
1L
0\
0b
1^
0]
0L
1f
1c
1b
0^
0g
0f
0c
1g
#790000
0"
0C
0D
12
#795000
1"
1C
1D
02
0w
0O
1G
0>
0+
0P
#800000
1&
0"
1I
0C
0D
12
0m
1a
0`
0Z
1L
0K
#805000
1"
1C
1D
02
0q
0v
0g
1S
1P
0@
0=
0-
0*
0W
1T
1[
1X
1\
1]
0b
1^
1f
1c
0j
1g
1n
1k
1o
1:
09
10
01
#810000
0"
0C
0D
12
#815000
1"
1C
1D
02
#820000
0&
0"
0I
0C
0D
12
1m
1`
1Z
1K
#825000
1"
1C
1D
02
1p
1s
1t
1w
0n
0k
1b
0^
0[
0X
1O
0G
1?
1B
1;
1>
1,
1/
1(
1+
0f
0c
0\
0S
0P
0o
1j
0g
0]
0L
1W
0T
0a
0:
19
00
11
1k
1^
1X
#830000
0"
0C
0D
12
#835000
1"
1C
1D
02
0w
0O
1G
0>
0+
1S
1P
0W
1T
0X
#840000
0"
0C
0D
12
#845000
1"
1C
1D
02
0t
1u
1v
1w
1[
1X
1W
0T
0S
0P
1O
0G
0;
1<
1=
1>
0(
1)
1*
1+
1\
0[
0X
1T
1P
1]
1L
0\
0^
0]
0L
1^
#850000
0"
0C
0D
12
#855000
1"
1C
1D
02
0w
0O
1G
0>
0+
0P
#860000
0"
0C
0D
12
#865000
1"
1C
1D
02
0v
1w
1S
1P
1O
0G
0=
1>
0*
1+
0T
0S
0P
1T
#870000
0"
0C
0D
12
#875000
1"
1C
1D
02
0w
0O
1G
0>
0+
1S
1P
0T
#880000
0"
0C
0D
12
#885000
1"
1C
1D
02
0u
1v
1w
0W
1T
0S
0P
1O
0G
0<
1=
1>
0)
1*
1+
1[
1X
1W
0T
1P
1\
0[
0X
1]
1L
0\
0^
0]
0L
1^
#890000
0"
0C
0D
12
#895000
1"
1C
1D
02
0w
0O
1G
0>
0+
0P
#900000
0"
0C
0D
12
#905000
1"
1C
1D
02
0v
1w
1S
1P
1O
0G
0=
1>
0*
1+
0W
1T
0S
0P
1[
1X
1W
0T
1\
0[
0X
1]
1L
0\
0^
0]
0L
1^
#910000
0"
0C
0D
12
#915000
1"
1C
1D
02
0w
0O
1G
0>
0+
1S
1P
0W
1T
1[
1X
1\
1]
1L
0^
#920000
0"
0C
0D
12
#925000
1"
1C
1D
02
0s
1t
1w
0b
1^
0[
0X
1O
0G
0B
1;
1>
0/
1(
1+
1f
1c
0\
0S
0P
0j
1g
0]
0L
1W
0T
0k
1b
0^
1X
0f
0c
1j
0g
1k
#930000
0"
0C
0D
12
#935000
1"
1C
1D
02
0w
0O
1G
0>
0+
1S
1P
0W
1T
0X
#940000
0"
0C
0D
12
#945000
1"
1C
1D
02
0t
1u
1v
1w
1[
1X
1W
0T
0S
0P
1O
0G
0;
1<
1=
1>
0(
1)
1*
1+
1\
0[
0X
1T
1P
1]
1L
0\
0b
1^
0]
0L
1f
1c
1b
0^
0j
1g
0f
0c
0k
1j
0g
1k
#950000
0"
0C
0D
12
#955000
1"
1C
1D
02
0w
0O
1G
0>
0+
0P
#960000
0"
0C
0D
12
#965000
1"
1C
1D
02
0v
1w
1S
1P
1O
0G
0=
1>
0*
1+
0T
0S
0P
1T
#970000
0"
0C
0D
12
#975000
1"
1C
1D
02
0w
0O
1G
0>
0+
1S
1P
0T
#980000
0"
0C
0D
12
#985000
1"
1C
1D
02
0u
1v
1w
0W
1T
0S
0P
1O
0G
0<
1=
1>
0)
1*
1+
1[
1X
1W
0T
1P
1\
0[
0X
1]
1L
0\
0b
1^
0]
0L
1f
1c
1b
0^
0j
1g
0f
0c
0k
1j
0g
1k
#990000
0"
0C
0D
12
#995000
1"
1C
1D
02
0w
0O
1G
0>
0+
0P
